<?xml version="1.0" encoding="UTF-8" standalone="no"?>
<svg xmlns="http://www.w3.org/2000/svg" viewBox="0 0 322.75553 571.18853" height="525" width="322.8" version="1.0" xmlns:xlink="http://www.w3.org/1999/xlink">
 <g>
  <path d="m161.4 57.45c-18.1 0-32.8 14.68-32.8 32.76v0.72c-1.1 2.09-2.8 7.11-3.1 7.77-1.7-5-4.7-4.76-6.2-1.79-1.7 3.19-1.7 9.69 0 16.09 0.4 1.9 1.2 3.8 2 5.6 0-0.1 0.1-0.2 0.1-0.3 0 0.3-0.1 0.5-0.1 0.8 0 14.4 10.6 26.7 25.6 31.6-0.7 2.2-1.6 5.9-1.4 9.7 0.2 3 1.2 6.1 3.5 8.5 2.4 2.4 6.1 4 11.7 4.3 5.7 0.4 9.3-1.1 11.5-3.5 2.2-2.3 2.9-5.6 2.9-8.9 0-3.4-0.8-6.9-1.6-9.4 16.2-4.3 27.9-17.2 27.9-32.3v-0.7 0.2c0.9-1.8 1.6-3.7 2.1-5.6 1.6-6.4 1.6-12.9 0-16.09-1.6-2.97-4.5-3.21-6.3 1.79 0.3-0.14-2.3-6.05-3.1-7.77v-0.72c0-18.08-14.6-32.76-32.7-32.76z" fill-rule="evenodd" transform="matrix(1.088 0 0 1.088 -14.2 0)" fill="#fff"/>
  <g transform="matrix(.01278 0 0 .01278 110.3 57.81)" stroke="#000" stroke-width="110.7" fill="none">
   <g id="MrEgghead" stroke-width="110.7">
    <title>Mr. Egghead Coloring Book, by Adam Stanislav</title>
    <path id="Face" d="m4e3 518.8c1881 0 3408 3500 3408 5095s-1527 2890-3408 2890-3408-1295-3408-2890 1527-5095 3408-5095z" stroke-width="110.7"/>
    <g id="Chin" stroke-width="110.7">
     <path d="m6495 6795c0 688-1123 1505-2506 1505-1384 0-2506-817-2506-1505"/>
     <path d="m6239 6665c0 688.2-1008 1435-2250 1435s-2250-746.6-2250-1435"/>
     <path d="m6009 6659c0 688.2-905.2 1247-2020 1247s-2020-558.8-2020-1247"/>
     <path d="m5802 6505c0 688.2-812.7 1247-1814 1247s-1814-558.8-1814-1247"/>
     <path d="m5617 6445c0 688-730 1155-1628 1155-899 0-1629-467-1629-1155"/>
    </g>
    <path id="Hair" d="m1115 3441c-6.408-78.18-9.646-157.3-9.646-237.1 0-1598 1297-2895 2895-2895s2895 1297 2895 2895c0 79.83-3.238 158.9-9.646 237.1-603.6-1463-1671-2922-2885-2922s-2281 1459-2885 2922z" stroke-width="110.7"/>
    <g id="Eye">
     <path d="m2879 3728c81.77-261.2 275.2-444.9 500.6-444.9s418.8 183.7 500.6 444.9c-81.77 261.2-275.2 444.9-500.6 444.9s-418.8-183.7-500.6-444.9z" stroke-width="110.7"/>
     <path d="m3380 3452c139.6 0 253 129.6 253 289.2s-113.4 289.2-253 289.2-253-129.6-253-289.2 113.4-289.2 253-289.2zm0 216.9c34.91 0 63.25 32.39 63.25 72.29s-28.34 72.29-63.25 72.29-63.25-32.39-63.25-72.29 28.34-72.29 63.25-72.29z" stroke-width="110.7"/>
    </g>
    <use xlink:href="#Eye" transform="translate(1240)" height="100%" width="100%" y="0" x="0" stroke-width="110.7"/>
    <path id="Mouth" d="m2880 6349c0 222.8 499.4 403.6 1114 403.6 615.1 0 1114-180.9 1114-403.6-260 66.83-669.9 121.1-1114 121.1-444.6 0-854.4-54.26-1114-121.1z" stroke-width="110.7"/>
    <g id="Nose" stroke-width="110.7">
     <circle cy="5217" cx="3855" r="90.36"/>
     <circle cy="5217" cx="4145" r="90.36"/>
    </g>
    <g id="Ears" stroke-width="110.7">
     <path d="m592.3 5573c-74.38-152.3-136.7-312.6-175.4-473-142-549.4-142-1099 0-1373 130.6-252.6 381.3-272.9 531.2 152.6-221.2 631.5-348.5 1236-355.8 1694z"/>
     <path d="m7052 3879c149.9-425.5 400.6-405.2 531.2-152.6 142 274.7 142 824.1 0 1373-38.7 160.4-101.1 320.7-175.4 473-7.293-457.7-134.6-1062-355.8-1694z"/>
    </g>
   </g>
  </g>
  <path d="m146.3 164.4s-9.86 22.17 14.35 23.53 12.58-23.12 12.58-23.12" stroke="#000" stroke-width="1.414" fill="none"/>
 </g>
</svg>
