<?xml version="1.0" encoding="UTF-8" standalone="no"?>
<svg xmlns="http://www.w3.org/2000/svg" height="525" width="322.8" version="1.0" viewBox="0 0 322.75553 571.18853">
 <g fill="#fff">
  <path d="m146.9 182c-0.1357 1.145-1.083 1.948-1.796 2.782 0.4901 0.2294 1.057 0.5123 1.156 1.101 0.2127 0.8339-0.6579 1.676-1.504 1.443-0.7412-0.1197-1.022-0.901-1.009-1.553-0.8952 0.4389-1.624 1.132-2.531 1.549-1.987 0.9616-4.167 1.69-6.407 1.609-3.261-0.0239-6.455-1.336-9.728-0.714-0.9661 0.2494-1.985 0.6184-2.728 1.271-3.461 0.8718-6.394 3.711-7.31 7.14-0.9154 3.188-1.187 6.506-1.81 9.751-1.156 7.317-1.241 14.75-0.9754 22.14 0.2815 6.18 0.6208 12.36 1.103 18.53 0.3119 3.834 0.5518 7.679 1.143 11.48 0.3848 2.745 0.898 5.494 0.8372 8.277-0.0162 2.234-0.8342 4.36-1.075 6.568-1.26 16.55 0.9602 33.13-0.0829 49.68-0.1519 2.244 0.0695 4.512-0.289 6.742-0.1924 1.227-0.6768 2.437-1.562 3.34-0.9539-0.9735-2.33-1.244-3.646-1.29-0.6481 0.3172-1.341 0.6275-1.81 1.192-0.8324 0.8618-0.7975 2.135-1.198 3.198 0.002 1.799-0.7782 3.461-1.305 5.153-1.304 3.904-3 7.713-3.734 11.78-0.158 1.41-0.4427 3.038 0.493 4.258 0.958 1.287 2.424 2.051 3.751 2.911 4.583 2.945 9.123 5.971 13.42 9.32 1.353 0.8858 2.525 2.006 3.655 3.147 0.1053 6.256 1.177 12.44 1.509 18.68 0.1478 3.365-0.5716 6.844 0.4654 10.13 0.0445 0.0658 0.1296 0.202 0.1742 0.2678 0.6724-0.4848 1.774-0.3636 2.112 0.4484 0.0587 0.3591 0.2651 1.048-0.306 1.048 2.795 1.195 5.896 1.322 8.895 1.496 4.907 0.1396 9.814-0.105 14.72-0.3145l-0.0425 0.2635c0.0689-0.0658 0.2031-0.1932 0.2699-0.2571 16.33-3.177 11.84-1.079 22.32-0.2654 8.237 0.5067 16.54 0.8568 24.76-0.1148 1.934-0.2893 3.926-0.5067 5.765-1.173 0.6785-2.091 0.9564-4.29 1.177-6.466 0.0548-1.181 0.332-2.383-0.008-3.542 0.0243-0.5167 0.351-0.991 0.3166-1.524 0.0708-2.39 0.2355-4.777 0.4441-7.159-0.5347-0.3531-0.9706-0.994-0.7012-1.638 0.1559-0.5127 0.7236-0.6366 1.092-0.9498 0.8121-4.114 1.772-8.211 2.206-12.39 0.5063-4.66 1.076-9.325 2.125-13.9 0.4091-1.837 0.8085-3.673 1.218-5.508-0.399-0.0978-0.8418-0.0569-1.194-0.2784-0.6299-0.4548-0.7009-1.51-0.0468-1.978 0.4942-0.4269 1.194-0.1965 1.745-0.017 0.9762-4.61 1.738-9.307 1.611-14.03-0.083-7.762-0.781-15.51-1.97-23.19-0.5124 0.012-1.125 0.1091-1.49-0.3358-0.6521-0.5466-0.3958-1.795 0.4569-1.985 0.2086-0.1077 0.6449-0.0519 0.6226-0.391-0.3888-2.571-0.8681-5.128-1.366-7.68-1.021-4.752-1.443-9.697-3.396-14.21-0.6521 0.0419-1.47-0.139-1.626-0.8691-0.243-0.5566 0.1794-1.06 0.4994-1.477 0.3484 0.6144 0.6287 1.264 0.969 1.885-0.1013-0.393-0.236-0.7791-0.3676-1.158 2.031-0.2234 4.084-0.552 5.971-1.36 4.399-1.829 8.358-4.488 12.43-6.91 7.726-4.606 15.14-9.778 21.74-15.87 2.129-1.909 4.425-3.623 6.598-5.482 1.154-1.049 2.446-2.091 3.058-3.559 0.4901-1.664 0.2269-3.462-0.3442-5.074-0.8283-2.282-2.277-4.305-3.989-6.026-3.137-3.222-6.285-6.442-9.601-9.486-4.192-3.88-8.821-7.264-13.02-11.13-5.997-5.462-10.83-12.06-17.1-17.25-1.404-1.251-3.111-2.104-4.547-3.313-1.351-1.129-2.304-2.662-3.748-3.689-0.717-0.5187-1.633-0.6249-2.397-1.052-0.3119-0.1776-0.6481-0.2987-0.9924-0.3825-0.1074-0.3032-0.4355-0.3958-0.6927-0.5355-2.044-1.005-4.301-1.509-6.553-1.806-0.6643-0.1975-0.653 0.7784-1.228 0.8861-0.8628 0.399-1.66-0.3661-1.844-1.158-2.625-0.2773-5.341-0.442-7.775-1.551-1.15-0.5586-2.282-1.164-3.319-1.908-0.6764-0.4449-1-1.218-1.592-1.749 0.0729 0.2633 0.1482 0.525 0.2252 0.7884-0.0912 0.1297-0.2701 0.3909-0.3612 0.5206 0.8466 1.51 1.831 2.941 2.843 4.346 0.1013-0.5386 0.144-1.199 0.6949-1.498 0.5792-0.2833 1.462-0.1569 1.759 0.4675 0.3787 0.6504-0.0153 1.61-0.7586 1.791-0.5245 0.2075-1.013-0.138-1.439-0.3974 0.6704 1.055 1.388 2.08 2.046 3.143 1.316 2.031 2.999 3.844 4.001 6.06 0.5164 1.091 0.6097 2.335 0.391 3.51 0.4294 0.2733 0.9257 0.6198 0.8649 1.196 0.1478 0.8399-0.7868 1.536-1.575 1.243-0.4537 1.129-0.9801 2.23-1.509 3.328-0.5914 0.2234-1.215 0.347-1.847 0.357-0.004 0.8299-0.8967 1.561-1.717 1.226-0.7696-0.2115-0.9537-1.139-0.6864-1.796-1.193-0.4688-2.462-1.143-3.78-0.7862-1.086 0.2613-1.809 1.152-2.552 1.9-1.347 1.39-3.179 2.166-4.645 3.413-0.6116 0.1416-1.292-0.0681-1.929-0.004 0.156 0.5287 0.4676 1.12 0.1254 1.647-0.3625 0.7621-1.574 0.8386-2.07 0.1742-0.4415-0.4828-0.1861-1.16-0.0807-1.717-1.774 0.1795-3.715 0.3974-5.321-0.5482-2.325-1.305-3.262-3.963-5.2-5.661-1.231-1.083-3.011-0.8346-4.486-0.5015-2.118 0.4868-4.412 1.286-6.536 0.3846-0.4212-2.081-1.659-3.924-1.906-6.039-0.1276-0.0399-0.2525-0.0815-0.374-0.1254-0.8729-0.1117-1.699-0.9816-1.249-1.859 0.3018-0.7461 1.217-0.7982 1.902-0.6226 0.8931-1.995 2.361-3.68 3.226-5.689 0.7554-1.742 1.539-3.479 2.144-5.278 0.7412-2.176 1.069-4.511 0.7352-6.793zm50.05 39.82c3.451 0.6663 6.696 2.134 9.645 3.997 3.54 2.214 6.715 4.927 9.962 7.527 4.522 3.573 8.95 7.266 13.12 11.23 1.16 1.125 2.512 2.061 3.551 3.304 0.4071 0.4349 0.1626 1.066-0.0319 1.541-0.563 1.213-1.459 2.238-2.35 3.23-2.009 2.22-4.377 4.088-6.354 6.339-2.349 2.458-4.472 5.243-7.469 6.987-1.547 0.9376-3.14 1.809-4.632 2.837-1.353 0.9177-2.574 2.059-4.097 2.711-1.162 0.5147-2.538 0.465-3.674-0.0956-1.78-0.8718-3.065-2.422-4.367-3.853-0.9559-1.041-1.875-2.189-3.143-2.877-1.355-0.4588-2.831-0.2921-4.22-0.6014 0.0284-0.8997 0.0565-1.811-0.1339-2.697-0.401-1.919-1.345-3.675-1.783-5.582-0.3159-1.42-0.4957-2.867-0.5929-4.316-0.2997-0.2154-0.7358-0.096-1.05-0.2975-0.5731-0.3611-0.7208-1.17-0.3846-1.738 0.2167-0.5327 0.916-0.4774 1.394-0.5971 0.0952-4.014 1.054-7.945 2.174-11.79 0.9478-3.407 2.164-6.77 2.62-10.29-0.3605-0.1077-0.7964-0.1119-1.045-0.4271-0.4456-0.4668-0.4037-1.247-0.0149-1.734 0.3909-0.411 1.015-0.2635 1.521-0.2954 0.083-0.3132 0.1523-0.6283 0.2252-0.9435 0.2856-0.5765 0.4802-1.291 1.128-1.572zm-65.21 28.04c0.4921 0.1117 0.3205 0.8554 0.5291 1.232 0.4132 1.269 0.9961 2.483 1.375 3.765 0.3443-0.4429 0.704-1.056 1.364-0.9945 1.094-0.1596 1.745 1.376 0.9307 2.076-0.5428 0.5586-1.354 0.349-1.929-0.034 0.8567 2.43 1.555 4.939 1.713 7.518-0.0365 0.5386 0.5417 0.8625 0.5822 1.381 0.0769 0.5287-0.4012 0.9048-0.5228 1.388-0.1094 2.45-0.5229 4.894-1.26 7.24 0.484 0.2154 1.137 0.0728 1.494 0.5376 0.5144 0.6045 0.2986 1.63-0.4547 1.929-0.5792 0.3212-1.158-0.1014-1.683-0.3209-1.363 4.171-2.946 8.292-3.787 12.61 0.6339 0.2713 1.371 0.7385 1.203 1.538-0.0689 0.806-0.9428 1.044-1.619 1.143-0.3241 2.504-0.5222 5.024-0.5992 7.546 0.5246-0.1476 1.157-0.4287 1.657-0.0616 0.7676 0.4429 0.7717 1.696-0.0425 2.095-0.5428 0.377-1.17 0.0546-1.704-0.1509-0.1762 3.531-0.0997 7.072-0.3549 10.6-0.1722 3.168-0.4212 6.352-1.122 9.454-0.6683-3.375-0.5332-6.839-0.3145-10.25 0.719-10.18 1.139-20.38 2.136-30.53 0.3929-4.036 1.436-7.976 1.866-12.01 0.2835-2.641 0.2214-5.3 0.187-7.952 0.0445-2.388 0.0833-4.773 0.0914-7.161 0.004-0.8698 0.1542-1.73 0.2656-2.59z"/>
  <path d="m115.1 196.7c0.9154-3.429 3.848-6.268 7.309-7.14 1.764-0.0798 3.688 0.415 4.786 1.877 1.491 1.849 2.534 4 3.524 6.138 0.8952 2.081 1.805 4.215 1.977 6.494 0.1985 2.585 0.1013 5.183-0.1013 7.764-0.1134 1.686-0.7048 3.3-0.8283 4.983-0.1033 1.73 0.3686 3.437 0.2714 5.167-0.3767 5.512-0.8445 11.02-0.8628 16.55-0.0324 3.603 0.4719 7.186 0.3564 10.79 0.241 0.0977 0.3747 0.2693 0.3524 0.5366l0.2329 0.0199c0.1539 0.409 0.2025 0.8478 0.2086 1.283-0.2086-0.377-0.0385-1.121-0.5306-1.233-0.1114 0.8598-0.2613 1.72-0.2653 2.589-0.008 2.388-0.0466 4.774-0.0911 7.162 0.0344 2.651 0.0972 5.311-0.1863 7.952-0.4294 4.03-1.474 7.97-1.867 12.01-0.9964 10.15-1.416 20.35-2.135 30.53-0.2187 3.411-0.3544 6.877 0.3139 10.25-0.0263 0.2254-0.0506 0.4548-0.0729 0.6843-0.1154-0.0858-0.3463-0.2573-0.4618-0.3411 0.081 1.598 0.2228 3.194 0.4152 4.784 0.4739 4.06 1.576 8.022 1.985 12.09 0.0526 0.8219 0.1033 1.644 0.1094 2.468-0.0122 1.187-0.4415 2.332-0.3767 3.525-0.6319-0.4389-1.424-0.5047-2.163-0.387-1.262 1.785-1.924 3.9-2.398 6.005-0.8 3.796-0.9154 7.69-0.9033 11.56-1.618 0.1915-3.336-0.3511-4.354-1.644-2.214-2.781-2.505-6.506-4.383-9.464-1.175-0.8638-2.88-0.5307-4.02-1.456-0.8081-4.786 1.663-9.251 2.24-13.91-0.2349-0.395-0.4861-0.78-0.7919-1.121 0.885-0.9037 1.369-2.115 1.561-3.342 0.3585-2.23 0.1377-4.497 0.2896-6.741 1.043-16.55-1.177-33.13 0.083-49.68 0.241-2.208 1.059-4.333 1.075-6.567 0.0608-2.783-0.4537-5.532-0.8385-8.277-0.5914-3.804-0.8304-7.649-1.142-11.48-0.482-6.168-0.8223-12.35-1.104-18.53-0.2653-7.387-0.1802-14.82 0.9762-22.14 0.6238-3.246 0.8952-6.563 1.811-9.751z" stroke="#000" stroke-width="1.523"/>
 </g>
 <path stroke="#000" stroke-width="1.523" d="m194.9 205c0.478-4.062 3.299-7.359 4.107-11.33 0.3443 0.0838 0.6805 0.2035 0.9924 0.381 0.7635 0.4269 1.681 0.5346 2.398 1.053 1.444 1.027 2.398 2.56 3.749 3.689 1.436 1.209 3.143 2.061 4.547 3.312 6.266 5.191 11.1 11.79 17.1 17.25 4.202 3.868 8.832 7.254 13.02 11.13 3.315 3.044 6.463 6.264 9.6 9.486 1.711 1.722 3.161 3.745 3.99 6.027 0.5711 1.612 0.8344 3.409 0.3443 5.073-0.6116 1.468-1.904 2.51-3.058 3.559-2.173 1.859-4.47 3.575-6.598 5.484-6.604 6.089-14.02 11.26-21.74 15.87-4.073 2.422-8.032 5.081-12.43 6.91-1.888 0.808-3.939 1.137-5.971 1.361 0.1316 0.379 0.2673 0.7641 0.3686 1.157-0.3402-0.6204-0.6218-1.269-0.9701-1.883-0.7919-1.438-1.734-2.827-2.977-3.924-0.5144-0.4508-1.088-0.8379-1.707-1.129-1.956-0.8758-4.235-0.393-6.068 0.5526-2.317 1.111-4.593 2.855-7.315 2.585 0.2835-1.586 2.037-2.089 3.297-2.731l0.1539-0.0858c0.881-0.4947 1.574-1.251 2.426-1.789 0.6521-0.4708 1.416-0.7521 2.114-1.145 0.563-0.5147 0.32-1.518-0.2471-1.943-0.6562-0.4528-1.493-0.4708-2.26-0.4489-1.938 0.0918-3.812 0.6563-5.655 1.207-0.7129 0.2354-1.422 0.4728-2.122 0.7321-1.177 0.397-2.327 0.8937-3.554 1.115-0.4334 0.0738-1.136 0.0379-1.173-0.5287-0.158-0.772 0.5023-1.408 0.5164-2.141-0.6218-0.4568-1.456-0.3112-2.179-0.407-0.563-0.0279-1.254-0.2294-1.365-0.8618 0.7433-0.9296 1.829-1.496 2.953-1.855 0.6096-0.2214 1.239-0.377 1.871-0.5346 1.025-0.2793 2.066-0.5307 3.046-0.9456 1.227-0.4788 2.307-1.406 2.724-2.669-0.3322-0.3431-0.7595-0.5646-1.211-0.7062-0.4861-0.0958-0.9762-0.1516-1.468-0.1676-1.653-0.0379-3.305 0.1796-4.958 0.0638-0.642-0.0459-1.28-0.2135-1.829-0.5486 0.2876-0.7102 1.025-1.079 1.734-1.269 4.559-0.9715 9.278-0.6184 13.84 0.1716 1.389 0.3092 2.864 0.1416 4.219 0.6005 1.268 0.6883 2.187 1.835 3.143 2.877 1.302 1.43 2.586 2.98 4.366 3.852 1.136 0.5606 2.511 0.6105 3.674 0.0958 1.523-0.6523 2.744-1.793 4.097-2.711 1.493-1.027 3.087-1.899 4.634-2.837 2.997-1.744 5.12-4.529 7.469-6.986 1.977-2.25 4.344-4.12 6.353-6.34 0.8911-0.9915 1.786-2.017 2.349-3.23 0.1944-0.4748 0.4395-1.105 0.0324-1.54-1.039-1.243-2.39-2.178-3.55-3.304-4.172-3.964-8.599-7.659-13.12-11.23-3.247-2.599-6.422-5.313-9.962-7.527-2.949-1.863-6.193-3.33-9.644-3.996-0.6481 0.2813-0.8425 0.9955-1.128 1.572 0.405-3.635 1.051-7.298 0.6278-10.96-0.3058-1.933-1.284-3.695-1.555-5.638-0.1215-0.6004-0.0932-1.215-0.0344-1.819z" fill="#fff"/>
 <path d="m145.1 184.8c0.7129-0.8339 1.661-1.636 1.796-2.781 0.3342 2.282 0.006 4.616-0.7352 6.793-0.6056 1.799-1.389 3.537-2.145 5.279-3.813 10.85-4.264 2.052-1.597 14.34 2.125 0.9017 4.417 0.1018 6.536-0.385 1.474-0.3332 3.255-0.5825 4.486 0.5007 1.938 1.698 2.876 4.357 5.201 5.662 1.606 0.9456 8.661 0.5886 9.273 0.447 1.466-1.247 3.299-2.021 4.646-3.411 0.7433-0.7481 1.466-1.638 2.552-1.899 1.318-0.3571 2.588 0.3172 3.781 0.786-0.2673 0.6563 2.398 1.398 2.402 0.568 0.6319-0.01 1.256-0.1337 1.847-0.3571 0.5286-1.097 1.055-2.198 1.509-3.328 0.7878 0.2932 1.138-2.167 0.7092-2.44 0.2187-1.175 0.1256-2.418-0.3909-3.509-1.003-2.216-2.683-4.03-4-6.061-0.6582-1.063-1.377-2.089-2.048-3.144 0.4253 0.2593-0.156-0.9012-0.2573-0.3628-1.013-1.404-1.995-2.835-2.841-4.345 0.0911-0.1297 0.2694-0.391 0.3605-0.5207-0.077-0.2633-0.1519-0.5247-0.2248-0.788 0.5914 0.5307 0.9154 1.303 1.592 1.748 1.037 0.7441 2.167 1.351 3.317 1.909 2.434 1.109 5.15 1.273 7.775 1.55 0.1843 0.792 2.41 0.076 3.074 0.2732 2.252 0.2972 4.508 0.8 6.552 1.805 0.2572 0.1396 0.5853 0.2334 0.6926 0.5366-0.8081 3.97-3.629 7.268-4.107 11.33-0.0182-0.1017-0.0547-0.3052-0.0729-0.407-0.8081 0.1796-1.28 1.109-0.8891 1.843 0.2025 0.3172 0.6359 0.782 0.9964 0.383 0.2714 1.943 1.25 3.705 1.555 5.638 0.4233 3.667-0.2228 7.329-0.6278 10.96-0.0729 0.3152-0.1438 0.6304-0.2268 0.9436-0.5063 0.0319-0.8202 2.348-0.4598 2.456-0.4557 3.519-1.673 6.883-2.621 10.29-1.12 3.842-2.078 7.774-2.173 11.79-0.478 0.1197-0.2588 2.416 0.0408 2.632 0.0972 1.448 0.2754 2.897 0.5914 4.317 0.4375 1.907 1.383 3.663 1.784 5.582 0.1904 0.8858 0.162 1.797 0.1337 2.697-4.561-0.79-9.28-1.143-13.84-0.1716-0.7088 0.1895-1.446 0.5586-1.734 1.269 0.5488 0.3352 1.187 0.5027 1.829 0.5486 1.653 0.1157 3.305-0.1017 4.958-0.0638 0.2592 0.4848 1.165 0.7122 1.468 0.1676 0.4516 0.1416 0.879 0.3631 1.211 0.7062-0.4172 1.263-1.497 2.19-2.724 2.669-0.9802 0.415-2.021 0.6663-3.046 0.9456 0.7088-0.5965-0.2775-1.666-1.047-1.54-1.061-0.0798-1.606 1.418-0.8243 2.075-1.124 0.3591-2.21 0.9256-2.953 1.855 0.1114 0.6324 0.802 0.8339 1.365 0.8618 0.723 0.0958 1.557-0.0499 2.179 0.407-0.0142 0.7321-0.6744 1.369-0.5164 2.141 0.0365 0.5666 0.7392 0.6025 1.173 0.5287 1.227-0.2214 2.378-0.7182 3.554-1.115 0.5428 1.075 2.414 0.6224 2.305-0.6104l-0.1823-0.1217c1.843-0.5506 3.716-1.115 5.655-1.207 0.7676-0.022 1.604-0.004 2.26 0.4489-0.3099 0.6364-0.2916 1.428 0.2471 1.943-0.6987 0.393-1.462 0.6743-2.114 1.145-0.8526 0.5386-1.545 1.295-2.426 1.789-0.004-0.4788-0.6643-0.0399-0.1539 0.0858-1.26 0.6424-3.014 1.145-3.297 2.731 2.722 0.2693 4.998-1.474 7.315-2.585 1.833-0.9456 4.111-1.428 6.068-0.5526-0.5448 0.2773 1.63 1.546 1.707 1.129 1.244 1.097 2.185 2.486 2.977 3.924-0.32 0.4169-0.7412 0.9197-0.4982 1.476 0.1559 0.7301 0.9721 0.9117 1.624 0.8698 1.952 4.509 2.376 9.452 3.396 14.2 0.4982 2.552 3.664 25.81 3.748 33.58 0.1276 4.724-2.924 19.98-3.333 21.81-1.049 4.576-1.618 9.241-2.125 13.9-0.4334 4.177-2.97 19.75-3.041 22.14 0.0344 0.5326-0.2916 1.007-0.316 1.524 0.3402 1.159 0.0628 2.362 0.008 3.543-0.2208 2.176-0.5002 4.375-1.179 6.466-1.839 0.6663-3.83 0.8837-5.764 1.173-8.219 0.9715-16.52 0.6204-24.76 0.1137-12.76-0.4181-25.62 0.872-37.27 0.5744-11.66-0.3458-10.98-3.183-11.34-13.39-0.3322-6.242-1.404-12.43-1.509-18.68-1.13-1.141-2.303-2.26-3.656-3.146-4.294-3.35-8.834-6.376-13.42-9.32-1.327-0.8598-2.793-1.624-3.751-2.911-0.9357-1.221-0.6501-2.849-0.4921-4.259 0.7332-4.066 2.43-7.874 3.735-11.78 0.5266-1.692 1.306-3.354 1.304-5.153 0.401-1.063 0.3646-2.336 1.197-3.198 0.4699-0.5646 1.163-0.8758 1.811-1.193 1.316 0.0459 2.694 0.3172 3.648 1.291 0.3058 0.3411 0.557 0.7262 0.7919 1.121-0.5772 4.662-3.048 9.127-2.24 13.91 1.14 0.9256 2.846 0.5925 4.02 1.456 1.877 2.958 2.169 6.683 4.383 9.464 1.019 1.293 2.736 1.835 4.354 1.644-0.0122-3.866 0.1033-7.76 0.9033-11.56 0.4739-2.105 1.136-4.219 2.398-6.005 0.7392-0.1177 1.531-0.0519 2.163 0.387-0.0648-1.193 0.3646-2.338 0.3767-3.525 0.4678-0.0579 0.3662-2.448-0.11-2.468-0.4091-4.07-1.511-8.032-1.985-12.09-0.1924-1.59-0.3342-3.186-0.4152-4.784 0.1154 0.0838 0.3463 0.2554 0.4618 0.3411 0.0223-0.2294 0.0466-0.4588 0.0729-0.6843 0.7007-3.102 0.9498-6.286 1.122-9.454-1.349-15.02 6.039-31.54 7.15-44.71 0.1215-0.4828 0.5995-0.8598 0.5225-1.388-0.0405-0.5187-0.6177-0.8419-0.5813-1.38-0.3512-5.499-2.026-8.021-3.453-12.33-0.006-0.4349-0.0547-0.8738-0.2086-1.283l-0.2329-0.02c0.0223-0.2673-0.1114-0.4389-0.3524-0.5366 0.1154-3.605-0.3888-7.188-0.3564-10.79 0.0182-5.528 0.4861-11.04 0.8628-16.55 0.0972-1.73-0.3747-3.437-0.2714-5.167 0.1235-1.684 0.7149-3.298 0.8283-4.983 0.2025-2.581 0.2998-5.179 0.1013-7.764-0.1722-2.278-1.082-4.413-1.977-6.494-0.9904-2.139-2.033-4.289-3.524-6.138-1.098-1.462-3.022-1.957-4.786-1.877 0.7433-0.6523 1.762-1.021 2.728-1.271 3.273-0.6224 6.469 0.6902 9.729 0.7142 2.24 0.0818 4.419-0.6464 6.406-1.608 0.9073-0.4169 1.636-1.111 2.532-1.55-0.0122 0.6524 1.848-0.7598 1.358-0.989" stroke="#000" stroke-width="1.435" fill="none"/>
 <path d="m129.6 189.9c-1.059 0.2713-1.063 1.937-0.0567 2.294 0.9519 0.4748 2.094-0.6304 1.651-1.576-0.1904-0.6643-0.9742-0.8997-1.594-0.7182"/>
 <path d="m139.7 189.9c-0.96 0.1756-1.268 1.596-0.4537 2.133 0.6683 0.6424 1.985 0.1436 2.003-0.786 0.1762-0.8518-0.7169-1.606-1.549-1.347"/>
 <path d="m134.4 194.9c-0.8749 0.401-0.881 1.827 0.0182 2.2 0.8952 0.5067 2.189-0.4967 1.758-1.48-0.1884-0.7242-1.126-1.073-1.776-0.7202"/>
 <path d="m184.5 194.9c-0.8344 0.3172-0.966 1.6-0.2208 2.095 0.7473 0.5945 2.066 0.0339 1.977-0.9576 0.1155-0.8977-0.9681-1.544-1.756-1.137"/>
 <path d="m194.4 194.9c-0.8202 0.387-0.9053 1.654-0.1033 2.109 0.8709 0.7162 2.319-0.3411 1.873-1.373-0.1823-0.7302-1.114-1.103-1.77-0.7361"/>
 <path d="m189.3 199.9c-0.8425 0.4528-0.7575 1.827 0.1357 2.172 0.8243 0.4469 1.908-0.3631 1.764-1.259-0.0304-0.8658-1.185-1.408-1.9-0.9137"/>
 <path d="m134.5 204.7c-0.966 0.3451-0.9256 2.055 0.1236 2.298 0.8769 0.3631 1.916-0.5187 1.64-1.426-0.1337-0.792-1.053-1.143-1.764-0.8718"/>
 <path d="m139.5 209.6c-1.029 0.381-0.9357 2.079 0.1519 2.308 0.8486 0.3272 1.805-0.5267 1.592-1.39-0.0689-0.804-1.033-1.225-1.744-0.9177"/>
 <path d="m149.4 209.7c-0.9397 0.4249-0.8466 1.927 0.1296 2.244 0.9296 0.4289 2.011-0.5965 1.634-1.528-0.1701-0.7361-1.122-1.051-1.764-0.7162"/>
 <path d="m189.5 209.6c-0.9519 0.3152-1.035 1.789-0.1236 2.204 0.7068 0.4628 1.752-0.0638 1.841-0.8798 0.2066-0.8997-0.8769-1.762-1.717-1.325"/>
 <path d="m134.4 214.6c-1.023 0.4429-0.7716 2.184 0.3605 2.288 0.8891 0.2414 1.73-0.7341 1.428-1.562-0.1701-0.7461-1.136-1.103-1.788-0.7262"/>
 <path d="m144.4 214.6c-0.644 0.3371-0.7919 1.251-0.3484 1.805 0.5408 0.8359 2.137 0.5147 2.216-0.5187 0.2673-0.9975-1.007-1.875-1.867-1.287"/>
 <path d="m154.3 214.7c-0.6299 0.4149-0.7412 1.444-0.1235 1.923 0.6764 0.7341 2.122 0.1476 2.06-0.8359 0.1661-0.9935-1.154-1.664-1.936-1.087"/>
 <path d="m174.4 214.6c-0.8607 0.383-0.7635 1.795 0.081 2.161 0.7635 0.405 1.823-0.1576 1.809-1.033 0.1316-0.9536-1.092-1.666-1.89-1.127"/>
 <path d="m184.3 214.6c-0.6764 0.4449-0.7514 1.614-0.008 2.041 0.723 0.5446 2.019 0 1.93-0.9496 0.1499-0.9875-1.126-1.664-1.922-1.091"/>
 <path d="m194.4 214.6c-0.7615 0.381-0.877 1.544-0.1884 2.045 0.6623 0.5965 1.871 0.1835 2.025-0.6962 0.2633-0.9755-0.96-1.887-1.837-1.349"/>
 <path d="m139.5 219.5c-0.7635 0.3192-1.035 1.412-0.4213 2.003 0.6542 0.77 2.125 0.2992 2.147-0.7202 0.1458-0.9177-0.879-1.628-1.726-1.283"/>
 <path d="m149.6 219.4c-1.025 0.2474-1.181 1.817-0.241 2.258 0.7534 0.4648 1.813-0.0998 1.867-0.9636 0.1215-0.8498-0.8162-1.562-1.626-1.295"/>
 <path d="m159.6 219.4c-0.8709 0.3052-1.13 1.606-0.3362 2.135 0.6947 0.6264 1.995 0.1017 2.017-0.8339 0.1519-0.8758-0.8547-1.62-1.681-1.301"/>
 <path d="m169.5 219.5c-0.9235 0.379-1.017 1.821-0.0871 2.242 0.8162 0.4788 1.954-0.2534 1.811-1.187 0.0304-0.8478-0.9843-1.339-1.723-1.055"/>
 <path d="m179.6 219.4c-0.8526 0.1995-1.146 1.388-0.5752 2.005 0.5266 0.6823 1.756 0.4928 2.09-0.2913 0.484-0.9177-0.5084-2.067-1.515-1.714"/>
 <path d="m189.7 219.4c-1.047 0.0898-1.331 1.602-0.5104 2.163 0.7028 0.6204 1.981 0.0838 2.023-0.8359 0.1195-0.786-0.719-1.578-1.513-1.327"/>
 <path d="m134.4 224.4c-0.7716 0.3571-0.9174 1.52-0.2633 2.051 0.6218 0.5706 1.811 0.2773 2.013-0.5606 0.4172-0.9715-0.8324-2.019-1.75-1.49"/>
 <path d="m144.5 224.4c-0.966 0.3052-1.039 1.768-0.162 2.22 0.723 0.4349 1.786-0.0539 1.869-0.8937 0.1924-0.9097-0.8547-1.71-1.707-1.327"/>
 <path d="m154.5 224.4c-0.962 0.3571-0.9823 1.881-0.0223 2.244 0.7878 0.413 1.847-0.2574 1.758-1.139 0.0932-0.8758-0.9782-1.464-1.736-1.105"/>
 <path d="m164.4 224.4c-0.7271 0.3551-0.9012 1.38-0.3423 1.957 0.5752 0.6882 1.873 0.401 2.092-0.4648 0.4172-0.9895-0.8223-1.991-1.75-1.492"/>
 <path d="m174.5 224.4c-0.9012 0.2913-1.049 1.628-0.2754 2.147 0.7858 0.6025 2.064-0.0439 2.005-1.027 0.0283-0.8658-0.9397-1.426-1.73-1.119"/>
 <path d="m184.5 224.4c-1.009 0.377-0.9215 2.075 0.158 2.288 0.7696 0.3132 1.685-0.379 1.592-1.189 0.0992-0.8678-1-1.504-1.75-1.099"/>
 <path d="m169.9 229.2c-0.8081 0.0539-1.399 0.9676-1.065 1.706 0.239 0.9316 1.762 1.027 2.222 0.2095 0.5326-0.8179-0.158-1.997-1.156-1.915"/>
 <path d="m139.3 229.4c-0.9276 0.5386-0.5853 2.174 0.5043 2.242 0.804 0.1795 1.59-0.5785 1.418-1.373-0.0223-0.8798-1.225-1.369-1.922-0.8698"/>
 <path d="m149.4 229.4c-0.6805 0.3312-0.8628 1.287-0.3828 1.853 0.5164 0.7042 1.918 0.5845 2.141-0.3132 0.4982-1.005-0.8081-2.143-1.758-1.54"/>
 <path d="m159.4 229.4c-0.7291 0.399-0.7858 1.476-0.1843 2.017 0.6785 0.5646 1.944 0.2115 2.062-0.7102 0.243-0.9975-1-1.879-1.877-1.307"/>
 <path d="m179.4 229.4c-0.6501 0.2952-0.8486 1.173-0.4678 1.748 0.4699 0.8299 1.962 0.7202 2.228-0.2294 0.4618-0.9795-0.8304-2.105-1.76-1.518"/>
 <path d="m189.3 229.4c-0.6278 0.3571-0.7818 1.263-0.3646 1.835 0.5732 0.7541 2.039 0.5326 2.22-0.4449 0.3463-1.015-0.9478-1.981-1.855-1.39"/>
 <path d="m134.5 234.2c-0.8607 0.415-0.9681 1.813-0.0689 2.236 0.879 0.5486 2.149-0.3651 1.827-1.359-0.1458-0.79-1.039-1.117-1.758-0.8778"/>
 <path d="m144.6 234.2c-0.9539 0.2773-1.116 1.762-0.2329 2.22 0.7352 0.4808 1.865-0.0459 1.908-0.9217 0.158-0.8798-0.8547-1.602-1.675-1.299"/>
 <path d="m154.5 234.2c-0.6299 0.3292-1.003 1.157-0.5894 1.791 0.4921 1.013 2.343 0.6763 2.307-0.5007 0.16-0.9256-0.8668-1.614-1.717-1.291"/>
 <path d="m164.5 234.2c-0.8709 0.4169-0.964 1.813-0.0628 2.242 0.798 0.5007 1.977-0.2454 1.855-1.169-0.0202-0.8718-1.009-1.367-1.792-1.073"/>
 <path d="m174.6 234.2c-0.9033 0.2972-1.106 1.576-0.3564 2.143 0.6947 0.6164 2.001 0.1057 2.021-0.8299 0.1458-0.8758-0.8324-1.622-1.665-1.313"/>
 <path d="m185.1 234.2c-0.8182-0.0618-1.555 0.7461-1.282 1.538 0.1316 0.8299 1.264 1.197 1.916 0.6902 0.96-0.5486 0.4962-2.256-0.6339-2.228"/>
 <path d="m139.5 239.2c-0.8385 0.3372-1.021 1.564-0.2775 2.097 0.7494 0.6683 2.139 0.0459 2.015-0.9755 0.0648-0.8778-0.962-1.432-1.738-1.121"/>
 <path d="m149.6 239.1c-1.031 0.2454-1.142 1.847-0.1802 2.254 0.7291 0.4289 1.723-0.1117 1.821-0.9237 0.158-0.8758-0.798-1.634-1.64-1.331"/>
 <path d="m159.5 239.2c-0.9519 0.2873-1.055 1.774-0.1742 2.208 0.7595 0.5107 2.023-0.1696 1.881-1.099 0.0587-0.8518-0.9458-1.41-1.707-1.109"/>
 <path d="m169.5 239.2c-0.3828 0.1476-0.6035 0.5426-0.723 0.9117-0.1924 0.8878 0.804 1.766 1.675 1.386 0.9134-0.2434 1.071-1.612 0.3484-2.145-0.3544-0.2833-0.881-0.2534-1.3-0.1536"/>
 <path d="m179.6 239.2c-1.082 0.2713-1.069 1.997-0.0223 2.306 0.9357 0.4169 2.033-0.6543 1.62-1.576-0.2106-0.6444-0.9701-0.9416-1.598-0.7302"/>
 <path d="m189.5 239.2c-0.9701 0.2633-1.071 1.787-0.1843 2.22 0.7737 0.4928 1.993-0.1855 1.881-1.113 0.0689-0.8518-0.9438-1.388-1.697-1.107"/>
 <path d="m134.4 244.1c-0.8486 0.377-0.8871 1.712-0.0628 2.137 0.8263 0.5446 2.092-0.2414 1.884-1.221-0.0689-0.8239-1.108-1.347-1.821-0.9157"/>
 <path d="m144.4 244.2c-0.6137 0.3332-0.8405 1.247-0.3747 1.789 0.5468 0.8738 2.149 0.5346 2.246-0.5047 0.2228-0.9935-1-1.817-1.871-1.285"/>
 <path d="m154.5 244.1c-0.9174 0.2952-0.9742 1.787-0.0729 2.151 0.7615 0.4947 1.859-0.1396 1.845-1.023 0.0871-0.8937-0.9823-1.572-1.772-1.127"/>
 <path d="m164.4 244.1c-0.9742 0.403-0.8607 2.007 0.1701 2.266 0.7595 0.2613 1.667-0.3052 1.649-1.123 0.0749-0.9017-1.025-1.582-1.819-1.143"/>
 <path d="m174.4 244.2c-0.7757 0.401-0.8061 1.618-0.079 2.085 0.7716 0.5366 2.013-0.0259 1.975-0.9955 0.081-0.9456-1.102-1.572-1.896-1.089"/>
 <path d="m184.5 244.1c-0.8445 0.3092-0.964 1.618-0.2147 2.103 0.7473 0.5586 2.1 0.0738 1.969-0.9536 0.1539-0.9177-0.9701-1.562-1.754-1.149"/>
 <path d="m149.7 249c-0.9499 0.2194-1.211 1.636-0.4152 2.186 0.6744 0.5187 1.813 0.1556 1.987-0.6922 0.2592-0.8898-0.6845-1.758-1.572-1.494"/>
 <path d="m179.6 249c-0.8142 0.1835-1.134 1.243-0.6785 1.891 0.4678 0.798 1.867 0.6922 2.167-0.2015 0.5185-0.8977-0.5164-2.025-1.489-1.69"/>
 <path d="m139.3 249.1c-0.6926 0.413-0.7473 1.468-0.0932 1.945 0.7494 0.768 2.234 0.0239 2.017-1.031 0.0101-0.9316-1.197-1.418-1.924-0.9137"/>
 <path d="m159.2 249.2c-0.5347 0.4868-0.559 1.49 0.0689 1.927 0.7757 0.7102 2.185-0.0499 2.023-1.075-0.0284-0.9795-1.347-1.446-2.092-0.8518"/>
 <path d="m169.3 249.1c-0.7149 0.4329-0.723 1.596 0.0101 2.021 0.7109 0.5666 1.965 0.0219 1.926-0.9117 0.1884-1.015-1.14-1.714-1.936-1.109"/>
 <path d="m144.6 253.9c-0.7271 0.2434-1.063 1.243-0.5752 1.853 0.4759 0.8498 1.93 0.6384 2.212-0.2793 0.401-0.9456-0.6825-1.965-1.636-1.574"/>
 <path d="m154.5 253.9c-0.8344 0.3651-0.9924 1.528-0.2916 2.105 0.7534 0.6803 2.177 0.014 2.031-1.013 0.0709-0.8778-0.9802-1.398-1.74-1.091"/>
 <path d="m164.6 253.9c-0.8992 0.2454-1.142 1.534-0.4213 2.101 0.6886 0.6583 1.989 0.1596 2.072-0.776 0.1438-0.8738-0.8081-1.626-1.651-1.325"/>
 <path d="m174.5 253.9c-0.9985 0.3072-1.067 1.927-0.0628 2.266 0.8 0.4429 1.813-0.2833 1.77-1.145 0.0607-0.8538-0.9438-1.41-1.707-1.121"/>
 <path d="m184.5 253.9c-0.9397 0.3551-0.9782 1.871-0.0304 2.238 0.7838 0.4429 1.879-0.2514 1.758-1.143 0.1073-0.8718-0.9782-1.43-1.728-1.095"/>
 <path d="m139.5 258.9c-1 0.381-0.9174 2.067 0.162 2.274 0.7575 0.2574 1.665-0.3391 1.61-1.149 0.1053-0.8878-1.007-1.538-1.772-1.125"/>
 <path d="m149.4 258.9c-0.6866 0.3052-0.8648 1.285-0.403 1.847 0.5023 0.7601 1.952 0.5905 2.157-0.3411 0.4516-0.9935-0.8202-2.057-1.754-1.506"/>
 <path d="m159.4 258.9c-0.8871 0.4568-0.7797 1.939 0.2086 2.212 0.8283 0.3691 1.871-0.4249 1.677-1.313-0.0608-0.8638-1.156-1.357-1.886-0.8997"/>
 <path d="m169.5 258.9c-0.6359 0.2474-0.9256 1.087-0.5772 1.67 0.2835 0.6384 1.165 0.8698 1.746 0.4848 0.7696-0.391 0.7838-1.602 0.1053-2.081-0.397-0.1696-0.8709-0.2972-1.274-0.0738"/>
 <path d="m179.4 258.9c-0.7109 0.3391-0.8688 1.398-0.318 1.947 0.5934 0.6085 1.823 0.403 2.08-0.4369 0.4618-0.9915-0.8283-2.089-1.762-1.51"/>
 <path d="m189.3 258.9c-0.6137 0.3611-0.7615 1.233-0.3686 1.811 0.6137 0.8897 2.368 0.4489 2.268-0.7002 0.1114-0.9436-1.106-1.608-1.9-1.111"/>
 <path d="m144.4 263.9c-0.721 0.381-0.8142 1.518-0.1519 2.007 0.6825 0.5985 1.886 0.1556 2.031-0.7322 0.2208-0.9855-1.013-1.871-1.879-1.275"/>
 <path d="m154.3 263.9c-0.7615 0.4848-0.7149 1.746 0.1296 2.123 0.8425 0.5047 1.995-0.2733 1.796-1.233 0.0344-0.9296-1.221-1.382-1.926-0.8898"/>
 <path d="m164.4 263.8c-0.8081 0.3571-0.8526 1.586-0.1539 2.075 0.7129 0.6224 1.991 0.0339 2.003-0.9077 0.1195-0.9316-1.053-1.646-1.849-1.167"/>
 <path d="m174.3 263.9c-0.7068 0.397-0.7777 1.498-0.1418 1.993 0.6987 0.6683 2.076 0.1317 2.06-0.8558 0.1478-0.9715-1.12-1.684-1.918-1.137"/>
 <path d="m139.5 268.7c-0.7858 0.3092-1.031 1.43-0.4111 2.013 0.6481 0.7421 2.088 0.2893 2.122-0.7042 0.2005-0.9257-0.8628-1.662-1.711-1.309"/>
 <path d="m149.6 268.7c-1.015 0.2434-1.179 1.869-0.1985 2.262 0.6744 0.395 1.606-0.006 1.78-0.7581 0.3342-0.9077-0.6724-1.837-1.582-1.504"/>
 <path d="m159.6 268.7c-0.8526 0.2494-1.098 1.486-0.4152 2.055 0.7372 0.784 2.208 0.0938 2.118-0.9456-0.0203-0.8259-0.9195-1.412-1.703-1.109"/>
 <path d="m169.5 268.7c-0.7858 0.3272-1 1.412-0.3949 2.005 0.6319 0.7441 2.122 0.3132 2.112-0.7022 0.1944-0.9376-0.8607-1.666-1.717-1.303"/>
 <path d="m144.4 273.7c-0.8202 0.4349-0.804 1.776 0.0466 2.167 0.7473 0.399 1.835-0.1097 1.833-0.9975 0.158-0.9616-1.059-1.656-1.879-1.169"/>
 <path d="m154.5 273.7c-0.802 0.2853-0.9559 1.468-0.3321 2.007 0.642 0.6164 2.013 0.2992 2.07-0.6643 0.2694-0.9576-0.8749-1.797-1.738-1.343"/>
 <path d="m164.4 273.7c-0.7615 0.3531-0.8992 1.56-0.2005 2.045 0.7271 0.6563 2.114 0.0678 2.041-0.9376 0.0648-0.9117-1.051-1.57-1.841-1.107"/>
 <path d="m174.4 273.7c-0.8587 0.4489-0.7696 1.915 0.1802 2.208 0.7595 0.3611 1.76-0.2773 1.719-1.115 0.0729-0.9376-1.1-1.588-1.9-1.093"/>
 <path d="m179.8 278.5c-0.885 0.1017-1.371 1.177-0.8891 1.905 0.4577 0.8339 1.932 0.6942 2.218-0.2174 0.4152-0.8319-0.4273-1.835-1.329-1.688"/>
 <path d="m139.3 278.7c-0.9438 0.5526-0.5711 2.176 0.5306 2.25 0.8 0.1696 1.547-0.5965 1.397-1.371-0.0243-0.8977-1.213-1.396-1.928-0.8798"/>
 <path d="m149.4 278.6c-0.7777 0.379-0.8891 1.584-0.1742 2.077 0.6218 0.4788 1.671 0.2454 1.922-0.5267 0.5124-1.007-0.7838-2.137-1.748-1.55"/>
 <path d="m159.4 278.6c-0.9296 0.4808-0.7028 2.089 0.3443 2.254 0.8 0.2394 1.693-0.5147 1.555-1.327-0.0324-0.8598-1.183-1.42-1.9-0.9276"/>
 <path d="m169.3 278.7c-0.877 0.5047-0.644 2.069 0.397 2.208 0.8709 0.2693 1.772-0.6164 1.503-1.478-0.0749-0.8658-1.25-1.207-1.9-0.7302"/>
 <path d="m134.6 283.4c-0.6299 0.1756-0.9944 0.9057-0.8101 1.52 0.1722 1.019 1.835 1.223 2.266 0.2773 0.64-0.9017-0.4192-2.19-1.456-1.797"/>
 <path d="m144.6 283.5c-0.8263 0.2653-1.12 1.508-0.4152 2.061 0.5792 0.5726 1.669 0.383 1.995-0.3631 0.5164-0.9336-0.5752-2.109-1.58-1.698"/>
 <path d="m154.7 283.4c-0.7554 0.1995-1.215 1.153-0.7372 1.817 0.4395 0.9256 2.084 0.7421 2.258-0.2773 0.3119-0.8838-0.6197-1.829-1.521-1.54"/>
 <path d="m164.6 283.4c-1.003 0.2653-1.173 1.841-0.2127 2.264 0.7372 0.4209 1.811-0.0938 1.857-0.9556 0.1215-0.8638-0.8142-1.586-1.645-1.309"/>
 <path d="m174.6 283.5c-0.9478 0.2893-1.096 1.75-0.2208 2.218 0.798 0.5247 2.044-0.1776 1.912-1.137-0.008-0.8219-0.9316-1.359-1.691-1.081"/>
 <path d="m184.6 283.4c-0.8486 0.1815-1.148 1.273-0.6602 1.929 0.5671 0.8658 2.224 0.4987 2.214-0.5845 0.2167-0.8638-0.7392-1.6-1.553-1.345"/>
 <path d="m194.6 283.5c-0.9397 0.2414-1.16 1.664-0.3382 2.176 0.6562 0.4967 1.75 0.1576 1.934-0.6583 0.3321-0.9197-0.6704-1.871-1.596-1.518"/>
 <path d="m139.5 288.4c-0.9296 0.3212-1.007 1.742-0.1458 2.186 0.7696 0.5007 1.977-0.1277 1.886-1.065 0.1114-0.8738-0.9985-1.476-1.74-1.121"/>
 <path d="m149.4 288.5c-0.4111 0.2035-0.7109 0.6164-0.6501 1.087-0.0911 0.808 0.8425 1.464 1.596 1.179 0.8405-0.1676 1.187-1.353 0.5995-1.953-0.3463-0.4668-1.037-0.5446-1.545-0.3132"/>
 <path d="m159.5 288.4c-1.043 0.3132-1.035 1.953 0.002 2.274 0.8385 0.409 1.9-0.4449 1.707-1.333-0.079-0.7621-1.013-1.261-1.709-0.9416"/>
 <path d="m169.5 288.4c-0.5549 0.2434-0.8911 0.9376-0.644 1.506 0.1681 0.7242 1.106 1.033 1.74 0.7062 0.5144-0.2095 0.7574-0.79 0.6481-1.313-0.0344-0.8179-1.047-1.227-1.744-0.8997"/>
 <path d="m179.4 288.4c-0.885 0.395-0.885 1.825 0.004 2.204 0.6461 0.2972 1.568 0.0359 1.746-0.7002 0.4597-0.9995-0.8121-2.019-1.75-1.504"/>
 <path d="m188.8 289.4c-0.2714 1.109 1.246 1.879 2.054 1.123 0.5266-0.3431 0.4456-1.021 0.3322-1.548-0.5934-0.9137-2.268-0.7361-2.386 0.4249"/>
 <path d="m199.5 288.4c-0.9458 0.3651-0.9458 1.871 0 2.232 0.7757 0.4209 1.845-0.2274 1.752-1.113 0.1073-0.8738-0.9985-1.516-1.752-1.119"/>
 <path d="m174.9 293.2c-1.041-0.016-1.596 1.375-0.8587 2.075 0.5833 0.7501 2.046 0.373 2.141-0.5805 0.2167-0.784-0.5104-1.508-1.282-1.494"/>
 <path d="m134.4 293.4c-0.8607 0.3431-0.8709 1.76-0.0405 2.149 0.8142 0.5167 2.048-0.2414 1.871-1.197-0.0344-0.8498-1.106-1.394-1.831-0.9516"/>
 <path d="m144.4 293.4c-0.7777 0.405-0.8202 1.67-0.0445 2.097 0.7392 0.4948 1.958-0.0279 1.936-0.9576 0.1114-0.9536-1.086-1.678-1.892-1.139"/>
 <path d="m154.3 293.5c-0.8749 0.5087-0.6319 1.999 0.3747 2.198 0.8263 0.2813 1.73-0.4868 1.557-1.335-0.0121-0.9057-1.229-1.371-1.932-0.8638"/>
 <path d="m164.4 293.4c-0.8202 0.383-0.8688 1.724-0.0466 2.133 0.7372 0.5007 1.908-0.0878 1.902-0.9815 0.1033-0.9396-1.049-1.644-1.855-1.151"/>
 <path d="m184.3 293.4c-0.8385 0.5406-0.64 1.993 0.3726 2.212 0.9073 0.3372 1.853-0.6404 1.537-1.514-0.1438-0.8359-1.239-1.141-1.91-0.6982"/>
 <path d="m194.4 293.4c-0.8445 0.3651-0.8648 1.716-0.0608 2.131 0.6926 0.4289 1.756 0.018 1.884-0.806 0.2876-0.9835-0.9519-1.873-1.823-1.325"/>
 <path d="m204.3 293.4c-0.7129 0.385-0.8 1.5-0.1539 1.991 0.6987 0.6663 2.102 0.1257 2.054-0.8698 0.1499-0.9636-1.11-1.668-1.9-1.121"/>
 <path d="m139.5 298.2c-0.96 0.3591-1.031 1.861-0.0729 2.258 0.802 0.4548 1.926-0.2733 1.786-1.187 0.0405-0.8478-0.9681-1.371-1.713-1.071"/>
 <path d="m149.6 298.2c-0.9215 0.2035-1.16 1.538-0.4516 2.103 0.6137 0.6025 1.851 0.2773 2.019-0.5785 0.3402-0.9017-0.6542-1.853-1.568-1.524"/>
 <path d="m159.5 298.2c-0.9235 0.3032-1.092 1.791-0.1985 2.228 0.7959 0.5147 2.068-0.1795 1.894-1.143 0.0385-0.8279-0.9559-1.369-1.695-1.085"/>
 <path d="m169.7 298.2c-0.9539 0.1835-1.282 1.554-0.5002 2.133 0.6846 0.6484 2.056 0.1616 2.027-0.8159 0.1762-0.8498-0.721-1.532-1.527-1.317"/>
 <path d="m179.6 298.2c-0.8851 0.2174-1.158 1.542-0.4395 2.087 0.5671 0.5586 1.697 0.3631 1.969-0.403 0.5084-0.9017-0.5509-2.061-1.529-1.684"/>
 <path d="m189.5 298.2c-0.8486 0.3032-1.051 1.45-0.4537 2.085 0.7716 0.7341 2.319 0.0838 2.137-1.013 0.0324-0.8199-0.9458-1.357-1.683-1.071"/>
 <path d="m199.7 298.2c-0.7919 0.1776-1.209 1.155-0.7777 1.841 0.4982 0.8758 2.086 0.7242 2.266-0.3112 0.3362-0.8738-0.5954-1.799-1.489-1.53"/>
 <path d="m134.4 303.2c-0.8405 0.3511-0.9093 1.688-0.1154 2.137 0.7028 0.5047 1.847 0.0259 1.928-0.8439 0.2005-0.9656-0.9519-1.738-1.813-1.293"/>
 <path d="m144.5 303.2c-0.9316 0.2593-1.092 1.68-0.2552 2.151 0.7149 0.5506 1.871 0.0499 1.948-0.8379 0.1843-0.8897-0.8688-1.682-1.693-1.313"/>
 <path d="m154.5 303.2c-0.559 0.2374-0.9195 0.9436-0.6683 1.514 0.1742 0.7182 1.124 1.061 1.764 0.7182 0.644-0.3032 0.8223-1.165 0.4901-1.754-0.2997-0.5287-1.039-0.7322-1.586-0.4788"/>
 <path d="m164.6 303.2c-1.043 0.2194-1.126 1.857-0.164 2.248 0.7797 0.4409 1.865-0.2115 1.825-1.099 0.0506-0.8379-0.8871-1.46-1.661-1.149"/>
 <path d="m174.5 303.2c-1.029 0.2932-1.035 1.921-0.0425 2.264 0.8608 0.4309 1.956-0.407 1.742-1.331-0.081-0.792-0.9883-1.187-1.699-0.9336"/>
 <path d="m184.5 303.2c-0.7352 0.2972-0.9863 1.329-0.4537 1.921 0.5995 0.794 2.102 0.4249 2.185-0.5885 0.2349-0.9476-0.8567-1.746-1.732-1.333"/>
 <path d="m194.6 303.2c-0.9033 0.2194-1.15 1.54-0.4253 2.091 0.6258 0.5706 1.809 0.2633 2.015-0.5706 0.3504-0.9236-0.6562-1.875-1.59-1.52"/>
 <path d="m204.5 303.2c-1.108 0.3192-0.9762 2.127 0.1458 2.324 0.8972 0.3172 1.845-0.6663 1.527-1.536-0.1823-0.7062-1.009-1.025-1.673-0.788"/>
 <path d="m129.4 308.2c-0.5246 0.2653-0.6987 0.9735-0.5428 1.498 0.2957 1.025 2.056 1.057 2.335-0.006 0.5063-1.031-0.8506-2.143-1.792-1.492"/>
 <path d="m139.3 308.2c-0.7109 0.4548-0.7412 1.57-0.0324 2.045 0.8162 0.6364 2.175-0.1237 1.946-1.161 0.008-0.9237-1.201-1.345-1.914-0.8838"/>
 <path d="m149.4 308.2c-1.007 0.4608-0.7595 2.149 0.3564 2.282 0.9499 0.2753 1.849-0.8658 1.381-1.706-0.2309-0.6783-1.138-0.9137-1.738-0.5765"/>
 <path d="m159.3 308.2c-0.9316 0.4768-0.7109 2.097 0.3463 2.252 0.7352 0.2214 1.564-0.3651 1.555-1.121 0.1316-0.9536-1.108-1.63-1.902-1.131"/>
 <path d="m169.3 308.2c-0.7696 0.4748-0.7311 1.722 0.0891 2.127 0.8405 0.4967 2.027-0.2673 1.823-1.239 0.0121-0.9217-1.199-1.365-1.912-0.8878"/>
 <path d="m179.4 308.2c-0.8344 0.401-0.8628 1.704-0.0486 2.145 0.8364 0.5466 2.074-0.2374 1.89-1.215-0.0547-0.8478-1.118-1.349-1.841-0.9296"/>
 <path d="m189.3 308.2c-0.6319 0.3491-0.7858 1.225-0.3605 1.791 0.5428 0.8598 2.12 0.5167 2.246-0.4908 0.2572-0.9995-1.019-1.895-1.886-1.301"/>
 <path d="m199.4 308.1c-0.6967 0.3132-0.96 1.321-0.3828 1.869 0.32 0.4788 0.9742 0.5486 1.489 0.377 0.7149-0.377 0.9418-1.392 0.3848-1.991-0.3808-0.375-1.003-0.4928-1.491-0.2554"/>
 <path d="m134.6 313c-0.9762 0.2055-1.215 1.684-0.3706 2.188 0.6582 0.4987 1.788 0.1496 1.942-0.6863 0.2754-0.8858-0.6744-1.809-1.572-1.502"/>
 <path d="m144.6 313c-0.7291 0.2214-1.047 1.215-0.6177 1.829 0.4537 0.8159 1.819 0.7322 2.197-0.1177 0.5063-0.9516-0.5671-2.103-1.58-1.712"/>
 <path d="m154.5 313c-0.8871 0.3511-1.061 1.696-0.2248 2.196 0.8587 0.6504 2.297-0.2873 1.904-1.321-0.1296-0.7421-0.9924-1.113-1.679-0.8758"/>
 <path d="m164.6 313c-0.8263 0.2434-1.169 1.38-0.559 1.995 0.5266 0.6843 1.79 0.5147 2.08-0.3052 0.4739-0.9137-0.5326-2.047-1.521-1.69"/>
 <path d="m174.5 313c-0.7696 0.2633-1.086 1.331-0.5408 1.945 0.6035 0.8738 2.214 0.397 2.226-0.6603 0.1215-0.8758-0.8567-1.592-1.685-1.285"/>
 <path d="m184.5 313c-0.6056 0.2913-0.9418 1.057-0.638 1.672 0.2815 0.8139 1.527 0.9576 2.076 0.3332 0.3382-0.4329 0.4314-1.065 0.1013-1.528-0.2977-0.5247-0.9944-0.6464-1.539-0.4768"/>
 <path d="m194.6 313c-1.015 0.2234-1.219 1.817-0.2653 2.252 0.6643 0.4269 1.657 0.0359 1.831-0.7282 0.3524-0.8738-0.6846-1.833-1.566-1.524"/>
 <path d="m204.5 313c-0.8749 0.2952-1.114 1.596-0.3362 2.129 0.7028 0.6803 1.999 0.0898 2.021-0.8558 0.0851-0.8798-0.8364-1.594-1.685-1.273"/>
 <path d="m129.6 318c-0.9256 0.2673-1.096 1.638-0.2876 2.141 0.7534 0.6324 2.11-0.0439 1.983-1.025 0.0547-0.8538-0.9316-1.398-1.695-1.115"/>
 <path d="m139.5 318c-0.6238 0.2693-0.9681 1.049-0.6177 1.658 0.3646 1.003 2.056 0.9037 2.309-0.1337 0.3706-0.9795-0.7412-1.925-1.691-1.524"/>
 <path d="m149.6 317.9c-0.7838 0.2254-1.096 1.271-0.6056 1.897 0.5246 0.794 1.979 0.5845 2.197-0.3671 0.3484-0.9157-0.6643-1.891-1.592-1.53"/>
 <path d="m159.5 317.9c-0.7777 0.2454-1.079 1.369-0.4942 1.941 0.6076 0.8279 2.139 0.393 2.197-0.6324 0.162-0.9197-0.8445-1.632-1.703-1.309"/>
 <path d="m169.5 318c-0.3443 0.1915-0.6319 0.5007-0.6987 0.8958-0.239 0.8838 0.7898 1.77 1.645 1.39 1.084-0.2494 1.073-2.037 0.0162-2.31-0.318-0.0519-0.6582-0.0898-0.962 0.0239"/>
 <path d="m179.4 318c-0.8729 0.413-0.9053 1.819-0.0101 2.224 0.8587 0.4828 2.054-0.3571 1.811-1.323-0.1296-0.81-1.071-1.205-1.8-0.9017"/>
 <path d="m189.5 318c-0.4901 0.1456-0.7959 0.6264-0.7838 1.121-0.0992 0.8558 0.9681 1.52 1.732 1.159 0.8405-0.2713 1.031-1.556 0.324-2.069-0.3281-0.3292-0.8547-0.3152-1.272-0.2115"/>
 <path d="m199.5 318c-0.6076 0.2613-0.9296 1.055-0.6218 1.646 0.3463 1.021 2.104 0.9117 2.327-0.1357 0.3646-0.9755-0.7514-1.939-1.705-1.51"/>
 <path d="m209.6 317.9c-1.199 0.2554-1.063 2.25 0.1478 2.354 0.9154 0.2394 1.807-0.7561 1.424-1.614-0.156-0.6863-0.9539-0.9217-1.572-0.7401"/>
 <path d="m134.4 322.9c-0.9195 0.4349-0.8364 1.967 0.1539 2.258 0.7007 0.2434 1.561-0.1736 1.663-0.9276 0.2471-0.9735-0.9478-1.829-1.817-1.331"/>
 <path d="m144.3 323c-0.6521 0.379-0.8263 1.398-0.2633 1.929 0.6339 0.6922 2.041 0.3471 2.149-0.6244 0.241-1.003-1.003-1.871-1.886-1.305"/>
 <path d="m154.3 323c-0.8972 0.5526-0.6076 2.18 0.5104 2.254 0.8101 0.1915 1.57-0.6065 1.406-1.386 0.0162-0.9057-1.219-1.321-1.916-0.8678"/>
 <path d="m164.4 322.9c-0.7797 0.3531-0.8567 1.562-0.1722 2.051 0.6724 0.5706 1.873 0.1556 2.007-0.7241 0.2511-0.9756-0.964-1.853-1.835-1.327"/>
 <path d="m174.3 323c-0.7514 0.407-0.8202 1.626-0.075 2.077 0.7008 0.4848 1.849 0.1037 1.956-0.78 0.2755-1.015-1.009-1.853-1.881-1.297"/>
 <path d="m184.4 322.9c-0.9782 0.411-0.8486 2.021 0.1802 2.278 0.6805 0.2334 1.468-0.2334 1.6-0.9217 0.3099-0.9516-0.9174-1.847-1.78-1.357"/>
 <path d="m194.4 322.9c-0.725 0.3551-0.8729 1.408-0.2916 1.953 0.6319 0.7122 1.985 0.3092 2.122-0.6344 0.2673-0.9795-0.964-1.857-1.831-1.319"/>
 <path d="m204.3 323c-0.8223 0.4389-0.802 1.831 0.0891 2.176 0.6967 0.3352 1.679-0.0678 1.78-0.8658 0.2572-0.9955-0.9904-1.895-1.869-1.311"/>
 <path d="m129.6 327.8c-0.9033 0.2853-1.116 1.582-0.3666 2.147 0.7028 0.6065 2.019 0.0858 2.027-0.8518 0.1377-0.8598-0.8385-1.61-1.661-1.295"/>
 <path d="m159.6 327.8c-0.7656 0.2773-1.1 1.331-0.5408 1.953 0.6015 0.8858 2.189 0.397 2.22-0.6504 0.1175-0.8818-0.8405-1.592-1.679-1.303"/>
 <path d="m169.7 327.7c-0.9721 0.1855-1.282 1.544-0.5124 2.139 0.6805 0.6743 2.052 0.1636 2.029-0.8159 0.1539-0.8299-0.717-1.538-1.517-1.323"/>
 <path d="m189.5 327.8c-0.9762 0.2494-1.094 1.76-0.2309 2.22 0.6785 0.4608 1.77 0.014 1.886-0.8 0.2167-0.8937-0.7696-1.774-1.655-1.42"/>
 <path d="m209.6 327.7c-0.6805 0.2015-1.039 0.9755-0.7939 1.626 0.2815 1.027 1.981 1.051 2.319 0.0499 0.4658-0.9197-0.5488-2.019-1.525-1.676"/>
 <path d="m139.3 327.9c-0.5894 0.3531-0.7352 1.231-0.3078 1.766 0.4577 0.6623 1.608 0.6563 2.044-0.0279 0.2754-0.4508 0.3038-1.111-0.0749-1.518-0.3726-0.5007-1.156-0.5227-1.661-0.2194"/>
 <path d="m149.4 327.9c-0.8385 0.387-0.8506 1.758-0.0142 2.155 0.7412 0.4548 1.835-0.1097 1.875-0.9695 0.1398-0.9436-1.057-1.678-1.861-1.185"/>
 <path d="m179.2 327.9c-0.883 0.6204-0.4496 2.286 0.7109 2.22 1.102 0.1197 1.707-1.311 1.031-2.087-0.48-0.381-1.225-0.5107-1.742-0.1337"/>
 <path d="m199.2 327.9c-0.7554 0.4588-0.6785 1.732 0.1296 2.105 0.6785 0.375 1.657-0.016 1.809-0.788 0.3321-1.061-1.039-1.991-1.938-1.317"/>
 <path d="m134.4 332.7c-0.9559 0.3451-0.881 2.019 0.1377 2.278 1.005 0.4608 2.118-0.8159 1.531-1.734-0.2937-0.6204-1.065-0.7401-1.669-0.5446"/>
 <path d="m144.6 332.7c-0.8506 0.2613-1.086 1.492-0.4091 2.057 0.6886 0.7042 2.062 0.2174 2.096-0.774 0.1661-0.8937-0.8587-1.612-1.687-1.283"/>
 <path d="m154.5 332.7c-0.9438 0.3511-0.9721 1.873-0.0263 2.244 0.7797 0.4269 1.89-0.2593 1.774-1.149 0.0608-0.8718-0.9843-1.414-1.748-1.095"/>
 <path d="m164.6 332.7c-0.8445 0.2274-1.122 1.402-0.5164 2.003 0.638 0.77 2.102 0.3312 2.165-0.6763 0.1418-0.8758-0.798-1.634-1.649-1.327"/>
 <path d="m174.5 332.7c-0.9985 0.3232-1.061 1.937-0.0486 2.288 0.8364 0.411 1.956-0.399 1.736-1.319-0.0668-0.796-0.964-1.219-1.687-0.9695"/>
 <path d="m184.5 332.7c-1 0.403-0.9357 2.035 0.1316 2.306 0.9114 0.381 1.952-0.6583 1.564-1.548-0.1195-0.7601-1.053-0.9715-1.695-0.7581"/>
 <path d="m194.4 332.7c-0.7899 0.409-0.9438 1.674-0.1276 2.137 0.7757 0.6164 2.037-0.0977 1.952-1.057 0.0101-0.8957-1.035-1.422-1.825-1.079"/>
 <path d="m204.5 332.7c-1.009 0.2893-1.065 1.903-0.077 2.268 0.7939 0.4229 1.853-0.2753 1.774-1.155 0.0405-0.8478-0.9316-1.402-1.697-1.113"/>
 <path d="m139.3 337.7c-0.7332 0.5227-0.7635 1.71 0.077 2.149 0.7818 0.4409 1.914-0.1416 1.845-1.071 0.0932-0.9715-1.128-1.552-1.922-1.077"/>
 <path d="m149.3 337.8c-0.5347 0.377-0.6035 1.167-0.3301 1.722 0.241 0.5366 0.9377 0.5666 1.448 0.4968 0.8547-0.1716 1.163-1.341 0.6056-1.961-0.403-0.5027-1.179-0.5426-1.724-0.2574"/>
 <path d="m159.4 337.7c-0.8364 0.4189-0.7615 1.744 0.0466 2.157 0.7777 0.4269 1.877-0.1716 1.849-1.065 0.0952-0.9476-1.102-1.584-1.896-1.091"/>
 <path d="m169.5 337.7c-0.8445 0.3371-0.9539 1.604-0.2167 2.113 0.7534 0.5606 2.039 0.0339 1.977-0.9536 0.1478-0.9077-0.9843-1.568-1.76-1.159"/>
 <path d="m179.4 337.7c-0.6562 0.3292-0.8749 1.277-0.401 1.839 0.5326 0.7541 1.914 0.5626 2.161-0.3471 0.5002-1.003-0.8466-2.061-1.76-1.492"/>
 <path d="m189.3 337.7c-0.6623 0.3651-0.8263 1.365-0.2653 1.889 0.6704 0.808 2.248 0.2673 2.165-0.812 0.1215-0.9436-1.132-1.582-1.9-1.077"/>
 <path d="m199.4 337.7c-0.6845 0.3312-0.9499 1.317-0.401 1.885 0.5266 0.7561 1.879 0.5207 2.135-0.3611 0.4212-0.9755-0.7939-2.051-1.734-1.524"/>
 <path d="m209.4 337.7c-0.6319 0.3471-0.8871 1.281-0.397 1.847 0.5104 0.7581 1.924 0.5925 2.165-0.3212 0.4597-1.015-0.802-2.087-1.768-1.526"/>
 <path d="m134.4 342.7c-0.8466 0.379-0.8223 1.72-0.0243 2.141 0.8081 0.5067 2.029-0.2214 1.888-1.173-0.0466-0.8578-1.116-1.444-1.863-0.9676"/>
 <path d="m144.4 342.7c-0.7656 0.4429-0.7716 1.672-0.002 2.115 0.8162 0.5566 2.08-0.1915 1.914-1.173 0.0182-0.9256-1.181-1.392-1.912-0.9416"/>
 <path d="m154.3 342.7c-0.6157 0.405-0.7392 1.315-0.2228 1.851 0.6481 0.778 2.171 0.3471 2.151-0.7162 0.1965-1.021-1.122-1.72-1.928-1.135"/>
 <path d="m164.4 342.7c-1.025 0.4289-0.7392 2.174 0.3726 2.274 0.9539 0.2454 1.831-0.8658 1.371-1.718-0.1863-0.7082-1.167-0.8957-1.744-0.5566"/>
 <path d="m174.3 342.7c-0.7352 0.3651-0.7858 1.532-0.1397 2.011 0.6319 0.5686 1.792 0.2334 1.979-0.6085 0.4233-1.019-0.9458-2.021-1.839-1.402"/>
 <path d="m184.3 342.7c-0.9276 0.5586-0.5853 2.198 0.5468 2.244 0.8628 0.1596 1.58-0.7222 1.359-1.522-0.1316-0.8359-1.233-1.183-1.906-0.7222"/>
 <path d="m194.4 342.7c-0.8486 0.3691-0.8142 1.714-0.0263 2.135 0.7514 0.4548 1.869-0.1037 1.906-0.9815 0.1154-0.9436-1.073-1.68-1.879-1.153"/>
 <path d="m204.3 342.7c-0.9235 0.5127-0.6845 2.035 0.3463 2.24 0.7534 0.2095 1.574-0.3471 1.566-1.133 0.1438-0.9636-1.132-1.664-1.912-1.107"/>
 <path d="m139.5 347.5c-0.8932 0.3471-1.047 1.718-0.1782 2.184 0.7088 0.5007 1.867 0.008 1.896-0.8718 0.1884-0.9197-0.8709-1.66-1.717-1.313"/>
 <path d="m149.6 347.5c-0.8547 0.1995-1.165 1.373-0.563 1.985 0.5833 0.7282 1.932 0.4389 2.131-0.4768 0.3605-0.8957-0.6785-1.823-1.568-1.508"/>
 <path d="m159.6 347.5c-0.7818 0.2853-1.09 1.333-0.5104 1.955 0.6116 0.8199 2.153 0.391 2.204-0.6304 0.1661-0.9057-0.8324-1.67-1.693-1.325"/>
 <path d="m169.5 347.5c-0.8729 0.381-1.011 1.708-0.1661 2.184 0.7858 0.5726 2.066-0.1057 1.9-1.093 0.0628-0.8758-0.9823-1.353-1.734-1.091"/>
 <path d="m179.5 347.5c-0.8142 0.379-0.9539 1.666-0.1681 2.143 0.7109 0.5227 1.902 0.0439 1.967-0.8518 0.1843-0.9616-0.9357-1.668-1.798-1.291"/>
 <path d="m189.5 347.5c-0.7777 0.2833-1.051 1.331-0.5104 1.955 0.6157 0.8159 2.187 0.391 2.206-0.6504 0.1701-0.9137-0.8385-1.644-1.695-1.305"/>
 <path d="m199.6 347.5c-0.6339 0.1796-1.082 0.8977-0.8486 1.53 0.162 0.7242 1.116 1.115 1.762 0.7401 0.6886-0.2234 0.7554-1.091 0.565-1.67-0.2937-0.4868-0.9154-0.7621-1.478-0.6005"/>
 <path d="m144.6 352.4c-0.8587 0.2713-1.057 1.53-0.3605 2.067 0.6724 0.5805 1.989 0.2075 2.066-0.7282 0.2086-0.9017-0.8729-1.732-1.705-1.339"/>
 <path d="m154.5 352.5c-0.723 0.3012-0.964 1.307-0.4395 1.891 0.5995 0.7681 2.096 0.4648 2.181-0.5586 0.2228-0.9436-0.8608-1.811-1.742-1.333"/>
 <path d="m164.6 352.4c-0.9012 0.2753-1.132 1.544-0.3726 2.095 0.7433 0.6543 2.088 0.0499 2.041-0.9416 0.0486-0.8259-0.9053-1.49-1.669-1.153"/>
 <path d="m174.4 352.5c-0.9174 0.4948-0.7473 2.103 0.3402 2.248 0.7494 0.2155 1.614-0.3611 1.559-1.157 0.0729-0.9496-1.094-1.566-1.9-1.091"/>
 <path d="m184.5 352.5c-0.8648 0.2992-0.9418 1.612-0.2228 2.111 0.6947 0.4748 1.89 0.1476 1.967-0.7681 0.2471-0.9536-0.8668-1.819-1.744-1.343"/>
 <path d="m194.4 352.5c-0.9256 0.4189-0.8385 1.935 0.1357 2.248 0.9195 0.385 2.023-0.6005 1.638-1.532-0.1742-0.7441-1.124-1.043-1.774-0.7162"/>
 <path d="m204.5 352.4c-0.7656 0.2414-0.9964 1.239-0.559 1.861 0.6218 0.9336 2.388 0.4289 2.276-0.7282 0.0911-0.8518-0.962-1.506-1.717-1.133"/>
 <path d="m149.4 357.4c-0.3119 0.1376-0.7919 0.5626-0.4537 0.8997 0.5752 0.3651 1.122 0.77 1.673 1.171 0.5246-0.1197 0.7635-0.8538 0.5813-1.329-0.1539-0.77-1.136-1.141-1.8-0.7421"/>
 <path d="m159.4 357.4c-0.7109 0.385-0.8243 1.536-0.1398 2.007 0.7028 0.6703 2.048 0.0938 2.044-0.8638 0.1296-0.9596-1.102-1.67-1.904-1.143"/>
 <path d="m169.3 357.5c-0.6157 0.415-0.7048 1.321-0.2289 1.877 0.6886 0.7282 2.202 0.3072 2.165-0.77 0.1722-1.005-1.144-1.688-1.936-1.107"/>
 <path d="m179.4 357.4c-1.023 0.405-0.7595 2.2 0.3564 2.28 0.879 0.2294 1.758-0.6902 1.45-1.536-0.158-0.7601-1.15-1.125-1.807-0.7441"/>
 <path d="m189.4 357.4c-0.8283 0.4369-0.7777 1.817 0.1175 2.159 0.8162 0.4668 1.971-0.3172 1.77-1.243-0.008-0.8758-1.177-1.377-1.888-0.9157"/>
 <path d="m199.3 357.5c-0.4172 0.2833-0.6542 0.8379-0.4901 1.325 0.1053 0.6883 0.9316 1.079 1.578 0.8937 0.6177-0.1875 1.025-0.9037 0.8182-1.518-0.1296-0.808-1.268-1.147-1.906-0.7002"/>
 <path d="m154.5 362.3c-0.3909 0.1257-0.6238 0.5187-0.7575 0.8818-0.2066 0.8878 0.7838 1.835 1.671 1.428 0.8121-0.2474 1.049-1.323 0.5326-1.941-0.324-0.4429-0.9498-0.4947-1.446-0.3691"/>
 <path d="m164.6 362.2c-0.8891 0.2214-1.16 1.516-0.4435 2.073 0.6866 0.7042 2.044 0.2115 2.084-0.772 0.1499-0.8798-0.8182-1.57-1.64-1.301"/>
 <path d="m174.6 362.3c-1.039 0.2593-1.104 1.989-0.0709 2.296 0.7959 0.391 1.835-0.3172 1.758-1.183-0.0466-0.8259-0.8871-1.398-1.687-1.113"/>
 <path d="m184.7 362.2c-1.084 0.2134-1.217 1.851-0.239 2.282 0.7129 0.401 1.8-0.1217 1.786-0.9596 0.158-0.8478-0.7088-1.6-1.547-1.323"/>
 <path d="m194.6 362.2c-1.017 0.2354-1.177 1.809-0.2288 2.24 0.7291 0.4708 1.798-0.0958 1.871-0.9356 0.1033-0.8738-0.802-1.58-1.642-1.305"/>
 <path d="m204.5 362.3c-0.9296 0.3232-1.084 1.742-0.1964 2.21 0.8911 0.6384 2.222-0.3711 1.853-1.382-0.1357-0.7401-0.9924-1.041-1.657-0.8279"/>
 <path d="m159.6 367.2c-1.023 0.3252-1.025 1.973 0.008 2.28 0.7797 0.3591 1.77-0.2893 1.713-1.137 0.1013-0.8558-0.962-1.488-1.721-1.143"/>
 <path d="m169.5 367.2c-0.4172 0.1177-0.5995 0.5566-0.7088 0.9296-0.1802 0.8558 0.8243 1.74 1.661 1.341 0.7919-0.1835 0.962-1.143 0.6845-1.791-0.3605-0.5007-1.055-0.7401-1.636-0.4788"/>
 <path d="m179.4 367.2c-0.6623 0.3212-0.8932 1.271-0.4213 1.843 0.5063 0.808 1.954 0.5845 2.179-0.3471 0.4091-0.9935-0.8142-2.025-1.758-1.496"/>
 <path d="m189.5 367.2c-0.9539 0.3172-1.045 1.803-0.1256 2.222 0.7757 0.4868 1.898-0.1895 1.853-1.081 0.0506-0.8538-0.9478-1.498-1.728-1.141"/>
 <path d="m199.5 367.2c-0.5347 0.2733-0.8749 0.9456-0.64 1.52 0.1924 0.6942 1.102 1.069 1.74 0.7122 0.7615-0.3292 0.9174-1.418 0.3321-1.973-0.3524-0.415-0.9539-0.3491-1.432-0.2593"/>
 <path d="m184.9 372c-0.8263 0.0259-1.377 0.9715-1.069 1.7 0.2349 0.6883 1.179 0.9935 1.798 0.5985 0.6137-0.3072 0.6947-1.105 0.4759-1.682-0.2511-0.393-0.7392-0.6444-1.205-0.6164"/>
 <path d="m194.8 372c-0.881 0.0918-1.385 1.183-0.879 1.899 0.4476 0.762 1.756 0.7561 2.139-0.0679 0.561-0.8179-0.2835-2.007-1.26-1.831"/>
 <path d="m154.3 372.2c-0.8628 0.5386-0.6683 2.033 0.3726 2.236 0.8911 0.2893 1.845-0.6524 1.519-1.52-0.16-0.8219-1.211-1.147-1.892-0.7162"/>
 <path d="m164.4 372.2c-0.7716 0.3671-0.8344 1.556-0.16 2.045 0.6623 0.5725 1.855 0.1496 1.999-0.7082 0.2997-0.9915-0.9701-1.905-1.839-1.337"/>
 <path d="m174.4 372.2c-0.7028 0.401-0.8243 1.504-0.1499 1.991 0.7311 0.6763 2.054 0.1077 2.058-0.8818 0.0972-0.9456-1.114-1.666-1.908-1.109"/>
 <path d="m204.3 372.2c-0.9053 0.5047-0.7048 2.075 0.3484 2.256 0.8061 0.2374 1.685-0.4848 1.551-1.311 0.006-0.8977-1.171-1.43-1.9-0.9456"/>
 <path d="m159.6 377c-0.8202 0.2933-1.148 1.466-0.4476 2.051 0.6542 0.7621 2.084 0.2434 2.127-0.7322 0.1316-0.8798-0.8364-1.622-1.679-1.319"/>
 <path d="m169.7 377c-0.8182 0.1995-1.239 1.267-0.6785 1.923 0.5691 0.9037 2.236 0.5027 2.218-0.5965 0.1681-0.8419-0.7291-1.568-1.539-1.327"/>
 <path d="m179.6 377c-0.9073 0.2155-1.181 1.548-0.4557 2.113 0.6299 0.5885 1.823 0.2793 2.019-0.5706 0.3646-0.8838-0.6542-1.863-1.564-1.542"/>
 <path d="m189.6 377c-0.887 0.2952-1.112 1.602-0.3301 2.135 0.7595 0.6783 2.131-0.0259 2.013-1.023 0.0162-0.8359-0.9195-1.382-1.683-1.111"/>
 <path d="m199.7 377c-1.015 0.1855-1.284 1.7-0.3909 2.202 0.7838 0.6005 2.133-0.1037 1.922-1.107 0.0344-0.7541-0.8202-1.319-1.531-1.095"/>
 <path d="m128.9 377.7c-0.3929 0.8179 0.3342 1.835 1.256 1.706 0.318 0.0339 1.094-0.3731 0.561-0.6563-0.6035-0.3471-1.12-0.9077-1.817-1.049"/>
 <path d="m124.5 382c-0.9539 0.3571-0.96 1.915 0.0121 2.258 0.7838 0.417 1.831-0.2753 1.76-1.141 0.0365-0.8817-0.9762-1.462-1.772-1.117"/>
 <path d="m134.5 382c-0.7797 0.3591-0.9175 1.544-0.2329 2.059 0.6845 0.6344 1.954 0.1576 2.046-0.7661 0.1924-0.9536-0.958-1.746-1.813-1.293"/>
 <path d="m154.5 382c-0.9539 0.3471-0.9782 1.891-0.0182 2.236 0.8587 0.4568 2.015-0.397 1.744-1.345-0.0911-0.776-1.029-1.219-1.726-0.8917"/>
 <path d="m164.4 382c-0.7959 0.399-0.8911 1.66-0.1094 2.123 0.7656 0.5785 2.035-0.0838 1.946-1.041 0.0445-0.9097-1.049-1.528-1.837-1.081"/>
 <path d="m174.5 382c-0.7412 0.2354-1.049 1.247-0.5529 1.845 0.4942 0.808 1.908 0.6424 2.199-0.2633 0.4314-0.9576-0.6825-2.027-1.647-1.582"/>
 <path d="m184.5 382c-0.9478 0.3591-0.9539 1.883-0.008 2.244 0.7656 0.4169 1.855-0.2514 1.76-1.123 0.0851-0.8678-0.9843-1.52-1.752-1.121"/>
 <path d="m194.4 382c-0.7959 0.409-0.9134 1.684-0.1013 2.145 0.7716 0.5566 1.997-0.0878 1.936-1.037 0.0304-0.9217-1.023-1.462-1.835-1.107"/>
 <path d="m129.4 387c-0.7818 0.393-0.8243 1.664-0.0668 2.103 0.7615 0.5027 1.96-0.0339 1.95-0.9695 0.1458-0.9396-1.104-1.666-1.884-1.133"/>
 <path d="m139.3 387c-0.6805 0.399-0.7494 1.438-0.1499 1.945 0.6926 0.7102 2.141 0.1556 2.078-0.8578 0.1357-0.9915-1.132-1.654-1.928-1.087"/>
 <path d="m149.4 387c-0.8628 0.3392-0.8425 1.728-0.0466 2.139 0.6906 0.4089 1.744 0.006 1.863-0.812 0.2613-0.9656-0.9478-1.875-1.817-1.327"/>
 <path d="m159.4 387c-0.7433 0.3711-0.8304 1.484-0.1782 1.985 0.6967 0.6942 2.086 0.1117 2.062-0.8638 0.1175-0.9376-1.092-1.66-1.884-1.121"/>
 <path d="m169.5 386.9c-0.7838 0.3232-0.9519 1.468-0.3078 2.009 0.6744 0.7162 2.151 0.1556 2.068-0.8538 0.158-0.9197-0.9782-1.588-1.76-1.155"/>
 <path d="m179.4 387c-0.6683 0.3252-0.8506 1.275-0.403 1.845 0.5245 0.7421 1.892 0.5825 2.161-0.3092 0.4942-0.9995-0.802-2.131-1.758-1.536"/>
 <path d="m189.3 387c-0.6542 0.3471-0.7797 1.249-0.3625 1.823 0.5873 0.788 2.139 0.5047 2.24-0.5287 0.2613-0.9995-1.019-1.883-1.877-1.295"/>
 <path d="m199.4 386.9c-0.6278 0.2713-0.8891 1.115-0.5488 1.698 0.324 0.6583 1.282 0.8379 1.851 0.387 0.6116-0.385 0.6056-1.335 0.1742-1.843-0.3889-0.3392-1.003-0.5027-1.476-0.2414"/>
 <path d="m124.5 391.8c-0.8425 0.3352-1.084 1.578-0.3119 2.115 0.6967 0.6224 2.017 0.1277 2.021-0.8259 0.1681-0.9137-0.8688-1.632-1.709-1.289"/>
 <path d="m134.7 391.8c-0.96 0.2214-1.205 1.658-0.3787 2.182 0.6744 0.5227 1.77 0.1456 1.95-0.6843 0.3058-0.9177-0.644-1.823-1.572-1.498"/>
 <path d="m144.6 391.8c-0.8142 0.2972-1.112 1.46-0.4435 2.053 0.6663 0.7521 2.102 0.2354 2.127-0.7521 0.158-0.8877-0.8608-1.582-1.683-1.301"/>
 <path d="m154.5 391.8c-0.7028 0.3072-1.013 1.285-0.5164 1.901 0.5732 0.8937 2.246 0.4967 2.234-0.6045 0.1802-0.9276-0.8709-1.62-1.717-1.297"/>
 <path d="m164.6 391.8c-1.027 0.2294-1.193 1.821-0.243 2.26 0.7372 0.4548 1.825-0.0997 1.861-0.9596 0.1256-0.8578-0.7939-1.57-1.618-1.301"/>
 <path d="m174.6 391.8c-0.7878 0.2633-1.098 1.317-0.5509 1.949 0.5873 0.8199 2.054 0.4608 2.201-0.5306 0.2471-0.9017-0.7797-1.748-1.651-1.418"/>
 <path d="m184.7 391.8c-0.7372 0.1616-1.148 1.031-0.8121 1.7 0.3564 0.9676 1.983 0.9496 2.297-0.0479 0.4172-0.8778-0.5286-1.979-1.485-1.652"/>
 <path d="m194.6 391.8c-0.885 0.2454-1.185 1.506-0.4739 2.091 0.642 0.6404 1.902 0.2913 2.062-0.6104 0.2694-0.9137-0.6643-1.801-1.588-1.48"/>
 <path d="m129.6 396.7c-0.8769 0.2514-1.081 1.5-0.403 2.065 0.6785 0.6763 2.011 0.2155 2.082-0.7441 0.1762-0.8917-0.8425-1.694-1.679-1.321"/>
 <path d="m139.5 396.8c-0.6785 0.2893-1.005 1.179-0.559 1.795 0.4861 0.8778 2.029 0.6883 2.248-0.2992 0.3443-0.9536-0.7534-1.965-1.689-1.496"/>
 <path d="m149.4 396.8c-0.7635 0.383-0.9256 1.532-0.2349 2.061 0.6359 0.5706 1.802 0.2593 1.997-0.5885 0.3868-1.007-0.8081-1.951-1.762-1.472"/>
 <path d="m159.5 396.7c-0.8385 0.2873-1.061 1.492-0.3909 2.065 0.7332 0.7382 2.236 0.1117 2.114-0.9396 0.0365-0.8478-0.9559-1.45-1.723-1.125"/>
 <path d="m169.5 396.8c-0.719 0.3391-0.9843 1.299-0.4638 1.921 0.5975 0.8059 2.185 0.4748 2.197-0.5945 0.2147-0.9516-0.8587-1.728-1.734-1.327"/>
 <path d="m179.6 396.7c-0.8871 0.2334-1.152 1.544-0.4192 2.091 0.6116 0.5865 1.802 0.2733 1.999-0.5586 0.3888-0.8957-0.6785-1.915-1.58-1.532"/>
 <path d="m189.5 396.8c-0.9094 0.2653-1.055 1.626-0.2856 2.133 0.7676 0.6264 2.096-0.0279 1.997-1.019 0.0689-0.8558-0.9519-1.41-1.711-1.113"/>
 <path d="m199.5 396.8c-0.2835 0.1556-0.5488 0.395-0.6521 0.7102-0.3524 0.7581 0.3524 1.708 1.185 1.66 0.9964 0.0399 1.626-1.271 0.9701-2.003-0.3342-0.4688-0.9904-0.5187-1.503-0.3671"/>
 <path d="m134.4 401.7c-0.7818 0.3611-0.881 1.55-0.1843 2.049 0.6197 0.5147 1.713 0.2454 1.952-0.5386 0.4334-0.9915-0.8283-2.083-1.768-1.51"/>
 <path d="m144.4 401.8c-0.6461 0.3551-0.7838 1.251-0.3686 1.835 0.5914 0.794 2.129 0.4888 2.24-0.5387 0.2714-0.9935-1.015-1.871-1.871-1.297"/>
 <path d="m154.5 401.7c-0.7838 0.3312-0.9904 1.47-0.318 2.017 0.6299 0.6524 1.969 0.2813 2.06-0.6583 0.2673-0.9456-0.8709-1.851-1.742-1.359"/>
 <path d="m174.3 401.8c-0.717 0.383-0.798 1.496-0.1823 2.005 0.6461 0.5266 1.835 0.2773 2.039-0.5785 0.3767-1.015-0.9397-2.053-1.857-1.426"/>
 <path d="m184.4 401.7c-0.7797 0.3212-0.9235 1.464-0.3058 2.011 0.7028 0.6922 2.171 0.1815 2.084-0.8618 0.1377-0.9157-0.9904-1.586-1.778-1.149"/>
 <path d="m194.4 401.7c-0.8304 0.387-0.8709 1.696-0.0587 2.129 0.6886 0.5067 1.77 0.0399 1.884-0.794 0.2937-0.9755-0.9519-1.873-1.825-1.335z"/>
 <path d="m164.6 401.6c-1.027 0.2294-1.193 1.821-0.243 2.26 0.7372 0.4548 1.825-0.0997 1.861-0.9596 0.1256-0.8578-0.7939-1.57-1.618-1.301"/>
 <path d="m203.8 382c-0.9053 0.5047-0.7048 2.075 0.3484 2.256 0.8061 0.2374 1.685-0.4848 1.551-1.311 0.006-0.8977-1.171-1.43-1.9-0.9456"/>
 <path d="m209.3 347.6c-0.9235 0.5127-0.6845 2.035 0.3463 2.24 0.7534 0.2095 1.574-0.3471 1.566-1.133 0.1438-0.9636-1.132-1.664-1.912-1.107"/>
 <path d="m209.1 308.1c-0.6967 0.3132-0.96 1.321-0.3828 1.869 0.32 0.4788 0.9742 0.5486 1.489 0.377 0.7149-0.377 0.9418-1.392 0.3848-1.991-0.3808-0.375-1.003-0.4928-1.491-0.2554"/>
 <path d="m199.1 279c-0.9397 0.2414-1.16 1.664-0.3382 2.176 0.6562 0.4967 1.75 0.1576 1.934-0.6583 0.3321-0.9197-0.6704-1.871-1.596-1.518"/>
 <path d="m189 248.9c-0.9397 0.3551-0.9782 1.871-0.0304 2.238 0.7838 0.4429 1.879-0.2514 1.758-1.143 0.1073-0.8718-0.9782-1.43-1.728-1.095"/>
 <path d="m178.8 190.2c-0.8344 0.3172-0.966 1.6-0.2208 2.095 0.7473 0.5945 2.066 0.0339 1.977-0.9576 0.1155-0.8977-0.9681-1.544-1.756-1.137"/>
 <path d="m164.4 214.6c-0.7271 0.3551-0.9012 1.38-0.3423 1.957 0.5752 0.6882 1.873 0.401 2.092-0.4648 0.4172-0.9895-0.8223-1.991-1.75-1.492"/>
 <path d="m139.5 199.9c-1.029 0.381-0.9357 2.079 0.1519 2.308 0.8486 0.3272 1.805-0.5267 1.592-1.39-0.0689-0.804-1.033-1.225-1.744-0.9177"/>
 <path d="m144.6 184.4c-0.96 0.1756-1.268 1.596-0.4537 2.133 0.6683 0.6424 1.985 0.1436 2.003-0.786 0.1762-0.8518-0.7169-1.606-1.549-1.347"/>
</svg>
