<?xml version="1.0" encoding="UTF-8" standalone="no"?>
<svg xmlns="http://www.w3.org/2000/svg" height="525" width="322.8" version="1.0" viewBox="0 0 322.75553 571.18853">
 <path stroke-linejoin="round" d="m125.5 297.3c-12.53 36.63 9.311 52.31-0.3125 83.03-1.203 3.537-2.745 6.966-3.605 10.61-0.5715 2.235-1.014 4.501-1.701 6.707-0.5864 1.892-0.8708 3.855-1.062 5.82-0.8228 7.804-0.1433 15.66-0.6738 23.48-0.2532 4.41 0.3545 8.802 0.5332 13.2 0.2178 4.282 0.9017 8.565 0.4922 12.86-0.296 2.551-1.639 4.824-2.232 7.303-0.3928 1.412-0.3944 2.896-0.1133 4.33 0.5324 2.631 0.3377 5.331 0.1758 7.988-0.4803 5.818-1.2 11.62-1.574 17.45 1.13-0.6546 2.46-0.2652 3.676-0.1699 2.131 0.0935 4.241-0.2959 6.357-0.4609 2.31-0.1485 4.601-0.4873 6.896-0.7715-0.004-0.2292-0.0102-0.4538-0.0176-0.6738-0.4449-5.312 0.2301-10.63 0.1836-15.94-0.0223-1.291-0.0786-2.59-0.4062-3.844-0.5361-2.167-1.434-4.235-1.875-6.428-0.9884-4.725-0.6009-9.615 0.2852-14.32 1.469-7.487 4.068-14.69 6.512-21.91 1.411-4.214 2.689-8.489 3.4-12.88 1.42-8.29 1.344-16.86 3.998-24.91 1.694-5.334 4.061-18.42 6.012-23.66l0.0391-0.2422c-0.0852 0.004-0.1706 0.006-0.2559 0.01l9.211-32.98 2.121-11.67 3.535 10.61 6.379 33.81c-0.0891-0.005-0.1785-0.008-0.2676-0.0137 1.011 6.894 1.543 21.89 1.029 28.85-0.4132 4.129-2.14 8.005-2.564 12.13-1.02 9.076 0.3428 18.17 1.316 27.19 0.5715 5.336 1.051 10.72 0.625 16.08-0.3071 3.497-0.9385 7.029-2.467 10.22-1.299 2.8-2.889 5.532-3.447 8.598-0.4877 2.492 0.2432 5.032-0.1738 7.529-0.2699 1.564-0.8129 3.069-1.1 4.631-0.2364 1.201-0.3995 2.415-0.5801 3.627-0.2439 1.57-0.2111 3.165-0.4531 4.736 1.582-0.4327 3.155 0.2578 4.604 0.8262 1.512 0.5849 3.026 1.405 4.697 1.357 1.27-0.231 2.482-0.6872 3.699-1.102 1.538-0.5978 3.173-1.066 4.537-2.012-0.1582-2.785-0.0287-5.574-0.0156-8.359 0.0559-2.875-0.0751-5.748-0.0918-8.623 0.0205-1.48-0.0378-2.99 0.3848-4.424 0.2215-0.8471 0.5523-1.666 0.7012-2.527 0.1899-1.482-0.2059-2.95-0.2227-4.428 0.0987-4.56 1.11-9.051 2.545-13.37 1.091-3.271 2.192-6.543 2.994-9.896 1.048-4.379 2.326-8.703 3.244-13.11 0.7856-3.552 1.278-7.158 2.174-10.69 0.6199-2.629 1.274-5.263 1.529-7.957 0.8098-9.049-1.291-18.05-0.7363-27.1 0.0756-1.218 0.2137-8.109 0.4141-11.08 9.389-30.02 11.01-36.78 0.2383-67.43-5.137-25.39-59.57-35.98-68.59-0.0002z" transform="matrix(1.088,0,0,1.088,-14.2,0)" stroke="#000" stroke-width="2.417" fill="#fff"/>
 <path stroke="#000" stroke-width="1.106" d="m177.7 531.3c1.673-0.6504 3.451-1.159 4.936-2.188 0.8304 0.9516 0.8891 2.296 1.096 3.483 0.2289 1.153-0.2815 2.246-0.3787 3.383-0.1681 1.516-0.1499 3.102-0.804 4.521-0.3159 0.7641-0.9802 1.323-1.691 1.73-1.827 1.017-3.913 1.446-5.964 1.762-2.212 0.2992-4.462 0.3691-6.683 0.1496-1.578-0.2134-3.263-0.4788-4.537-1.494-0.5488-0.3691-0.3281-1.079-0.4111-1.622-0.3686-2.773-1.699-5.396-1.59-8.231 0.0182-1.169 0.7514-2.276 1.886-2.669 1.721-0.4708 3.433 0.2793 5.009 0.8977 1.645 0.6364 3.291 1.53 5.11 1.478 1.381-0.2514 2.7-0.7481 4.024-1.199z"/>
 <path stroke="#000" stroke-width="1.106" d="m129.8 530.9c0.7919 2.378 0.9316 4.918 0.8992 7.405-0.0567 1.957-0.3362 4.002-1.408 5.694-0.883 1.373-2.566 1.915-4.111 2.167-3.194 0.4528-6.461 0.0938-9.565-0.7142-1.233-0.3631-2.491-0.7541-3.573-1.45-0.8385-3.164-0.7392-6.472-1.106-9.701-0.1397-0.4568 0.1843-0.8279 0.4638-1.141 1.229-0.7122 2.675-0.2893 3.998-0.1856 2.319 0.1017 4.616-0.3212 6.918-0.5007 2.513-0.1616 5.004-0.5306 7.502-0.8399-0.004-0.2493-0.0101-0.4927-0.0182-0.7321z"/>
</svg>
