<?xml version="1.0" encoding="UTF-8" standalone="no"?>
<svg xmlns="http://www.w3.org/2000/svg" viewBox="0 0 322.75553 571.18853" height="525" width="322.8" version="1.0">
 <path d="m131.6 323c-0.4359 1.643-0.9482 3.386-1.432 4.817-0.9301 2.754-2.595 11.2-3.702 18.78-1.107 7.574-3.095 19-4.416 25.41-1.322 6.397-5.943 20.89-7.008 25.34v0.00002c-1.064 4.444-2.218 9.74-2.563 11.74-0.7686 4.507-13.7 41.47-16.02 45.79-1.104 2.066-1.945 10.39-2.461 24.41-0.4306 11.7-1.406 31.04-2.17 42.98-1.229 19.19-1.165 21.91 0.5652 23.64 3.824 3.831 5.473 1.189 6.264-10.04 0.4131-5.846 1.662-12.79 2.775-15.45 5.298-12.62 7.274-25.51 7.656-49.89 0.3668-23.36 0.4653-24.12 5.55-43.19 2.847-10.67 6.093-22.51 7.214-26.29l2.04-6.885 0.4271 4.807c0.2354 2.641-1.301 12.22-3.413 21.28-6.288 26.97-6.502 28.82-7.622 65.3-0.5921 19.28-1.723 40.12-2.512 46.32-2.073 16.27-1.979 17.8 1.303 21.29 3.545 3.768 6.664 3.917 12.83 0.612 5.537-2.967 11.56-3.141 20.95-0.6247 8.141 2.191 38.21 2.616 39.47 0.5759 1.49-2.416-2.153-4.958-7.097-4.958-2.679 0-7.544-1.352-10.8-3.005-3.259-1.652-9.585-4.581-14.06-6.496-8.592-3.693-17.21-9.002-19.93-12.28-2.257-2.717-1.878-18.43 0.6524-27.04 1.113-3.781 2.762-9.414 3.666-12.52 4.256-14.61 10.63-43.05 11.91-53.2 0.7849-6.197 2.695-14.08 4.246-17.52 1.551-3.443 3.745-8.375 4.873-10.95 2.043-4.669 2.085-4.694 9.547-4.694h7.493l3.23 6.821c1.765 3.743 3.53 8.113 3.906 9.703 1.878 8.037 6.734 34.69 6.496 35.77-0.676 3.13 7.538 27.4 11.62 34.33 6.097 10.34 14.5 38.86 16.03 54.49 0.4256 4.281 1.391 8.401 2.142 9.152 2.103 2.103 8.174 1.828 14.7-0.663 5.633-2.153 6.259-2.153 13.67-0.0999 8.45 2.354 40.46 2.965 42.61 0.8117 1.652-1.652 0.0742-3.453-3.844-4.38-1.903-0.4506-6.41-1.653-10.03-2.68l-6.572-1.866s-2.465-1.252-7.422-3.33c-14.46-6.046-28.88-20.58-28.88-29.11 0-1.402-1.439-8.613-3.192-16.01-1.753-7.398-3.718-17.63-4.369-22.73-0.6635-5.108-1.729-11.03-2.393-13.14-0.651-2.116-2.103-8.087-3.204-13.24-1.114-5.158-2.903-11.64-3.98-14.4-1.214-3.13-2.165-10.63-2.516-20.03-0.3004-8.262-1.04-16.42-1.64-18.15-0.5884-1.728-3.156-10.74-5.684-20.03-2.529-9.289-7.035-25.64-10-36.3-1.411-5.076-2.521-9.197-3.498-12.95" stroke-width="1.252" fill="#fff"/>
 <path d="m118.8 365.2c-0.978 4.085-2.039 8.952-2.355 10.79-0.7065 4.142-12.59 38.12-14.72 42.09-1.015 1.899-1.788 9.55-2.262 22.44-0.3958 10.76-1.292 28.53-1.994 39.5-1.13 17.64-1.071 20.14 0.5195 21.72 3.515 3.521 5.031 1.093 5.758-9.229 0.3797-5.373 1.528-11.76 2.551-14.2 4.869-11.6 6.686-23.45 7.037-45.85 0.3371-21.47 0.4277-22.17 5.102-39.7 2.617-9.803 5.6-20.69 6.631-24.16l1.875-6.328 0.3926 4.418c0.2163 2.428-1.196 11.23-3.137 19.56-5.78 24.78-5.976 26.49-7.006 60.02-0.5442 17.72-1.584 36.88-2.309 42.57-1.905 14.96-1.819 16.36 1.197 19.57 3.259 3.463 6.125 3.6 11.8 0.5625 5.089-2.727 10.63-2.887 19.26-0.5742 7.483 2.014 35.12 2.405 36.28 0.5293 1.369-2.221-1.978-4.557-6.523-4.557-2.462 0-6.934-1.243-9.928-2.762-2.995-1.519-8.81-4.21-12.92-5.971-7.897-3.394-15.81-8.274-18.32-11.29-2.075-2.497-1.726-16.94 0.5996-24.85 1.023-3.475 2.538-8.652 3.369-11.51 3.912-13.43 9.767-39.57 10.95-48.9 0.7214-5.696 2.477-12.94 3.902-16.11 1.426-3.164 3.442-7.698 4.479-10.07 1.878-4.292 1.916-4.314 8.775-4.314h6.887l2.969 6.27c1.622 3.44 3.245 7.457 3.59 8.918 1.726 7.387 6.189 31.88 5.971 32.87-0.6213 2.877 6.929 25.19 10.68 31.55 5.604 9.504 13.32 35.71 14.74 50.09 0.3912 3.935 1.278 7.722 1.969 8.412 1.933 1.933 7.513 1.68 13.51-0.6094 5.178-1.979 5.753-1.979 12.56-0.0918 7.767 2.163 37.19 2.725 39.17 0.7461 1.519-1.519 0.0682-3.174-3.533-4.025-1.749-0.4142-5.891-1.519-9.217-2.463l-6.041-1.715s-2.266-1.151-6.822-3.061c-13.29-5.558-26.54-18.92-26.54-26.75 0-1.289-1.323-7.917-2.934-14.72-1.611-6.8-3.417-16.2-4.016-20.89-0.6098-4.695-1.589-10.14-2.199-12.08-0.5983-1.945-1.933-7.433-2.945-12.17-1.024-4.741-2.669-10.7-3.658-13.23-1.116-2.877-1.99-9.769-2.312-18.41-0.2762-7.594-0.9555-15.1-1.508-16.68-0.5408-1.588-2.9-9.872-5.225-18.41-2.324-8.538-6.466-23.57-9.193-33.37-1.297-4.666-2.317-8.453-3.215-11.91h-2.178c0.9628 3.131 2.105 7.141 3.58 12.48 6.996 25.38 15.1 55.98 15.1 57.03 0 0.6558-15.13 1.082-38.01 1.082-31.97 0-38.11-0.266-38.64-1.658-1.002-2.612 4.028-33.02 7.096-42.89 3.314-10.67 3.381-12.06 0.9141-19.3-0.8954-2.629-1.308-4.438-1.322-6.74h-2.994c-0.4006 1.51-0.8716 3.112-1.316 4.428-0.8549 2.531-2.385 10.3-3.402 17.26-1.017 6.961-2.845 17.47-4.059 23.36-1.215 5.88-5.462 19.2-6.441 23.29zm16.8-62.2c2.402 0 2.518 10.14 0.1973 17.42-1.282 4.027-5.486 19.23-9.338 33.78-3.853 14.56-8.825 33.19-11.05 41.42-3.868 14.31-4.059 15.92-4.414 37.39-0.3797 22.99-1.029 27.31-6.643 44.19-1.242 3.728-2.619 10.72-3.059 15.53-0.4775 5.212-1.178 8.158-1.738 7.283-0.5166-0.8054-0.4031-11.16 0.2539-23.01 0.6582-11.85 1.526-29.05 1.93-38.24 0.5247-11.93 1.321-18.16 2.795-21.86 5.819-14.61 10.99-30.16 15.16-45.58 2.548-9.424 5.558-20.49 6.688-24.61 1.131-4.119 3.172-15.2 4.537-24.63 2.6-17.5 2.9-19.1 4.7-19.1zm9.598 65.61c6.253 0.0633 12.27 0.4576 12.27 1.125 0 0.6328-1.528 4.384-3.395 8.342-2.327 4.925-3.972 11.17-5.234 19.85-1.94 13.34-9.162 43.93-13.89 58.81-1.97 6.213-2.799 11.47-2.799 17.78 0 8.492 0.1879 9.148 3.574 12.53 1.966 1.968 8.567 5.924 14.67 8.801s13.69 6.455 16.85 7.951c3.291 1.553 7.352 2.579 9.492 2.395 2.382-0.1956 3.74 0.2062 3.74 1.115 0 2.186-23.51 2.186-29.68 0.0117-2.635-0.9205-7.808-2.025-11.49-2.439-5.57-0.6328-7.469-0.3573-11.23 1.656-5.792 3.107-7.596 3.049-10.76-0.3105-2.386-2.543-2.49-3.244-1.42-9.492 1.996-11.67 3.514-34.58 4.082-61.65 0.3015-14.38 1.132-28.36 1.844-31.07 1.313-4.994 2.835-11.05 6.461-25.65 1.1-4.43 2.549-8.434 3.221-8.895 0.947-0.6558 7.438-0.9227 13.69-0.8594zm48.83 0.0801c4.402 0.00047 8.381 0.1606 9.844 0.5273 2.877 0.7134 3.071 1.196 3.094 7.26 0.023 3.567 0.4948 8.308 1.059 10.52 5.742 22.52 8.17 32.98 9.24 39.74 1.542 9.815 7.883 41.01 9.471 46.63 3.095 11 24.78 25.94 43.5 29.95 3.164 0.6674 5.742 1.736 5.742 2.369 0 1.645-27.79 0.5752-35.97-1.381-5.868-1.404-7.457-1.357-13.99 0.3809-4.05 1.082-7.571 1.967-7.812 1.967-1.795 0-3.209-3.624-3.209-8.25 0-3.015-0.7494-7.697-1.67-10.41-0.9205-2.704-2.703-9.32-3.957-14.71-2.198-9.378-4.212-14.65-11.91-31.07-5.316-11.31-6.258-14.92-11.9-45.45-1.634-8.86-3.97-18.38-5.178-21.15-1.22-2.762-2.209-5.397-2.209-5.834 0-0.6616 8.513-1.102 15.85-1.102z" transform="matrix(1.088 0 0 1.088 -14.2 0)" stroke-width="1.151"/>
</svg>
