<?xml version="1.0" encoding="UTF-8" standalone="no"?>
<svg xmlns="http://www.w3.org/2000/svg" viewBox="0 0 322.75553 571.18853" height="525" width="322.8" version="1.0">
 <g>
  <path d="m160.9 200.4c-0.4157-0.1952-2.4-0.9867-4.409-1.759-6.904-11.15 1.185-5.632-14.4-10.7l1.094-0.7969-2.944-1.496c-1.619-0.8226-3.786-2.061-4.815-2.753-1.029-0.6915-1.939-1.257-2.022-1.257-0.0828 0-0.5861 0.4488-1.118 0.9973-1.282 1.321-2.778 2.053-4.516 2.211-5.222 0.4735-9.097-4.438-7.414-9.396 0.2178-0.6415 0.3418-1.221 0.2756-1.287-0.0662-0.0662-0.5562 0.0005-1.089 0.1484-1.433 0.3979-2.423 0.3332-4.015-0.2626-4.716-1.764-6.205-7.492-2.961-11.39 0.6786-0.8158 0.5826-1.175-0.314-1.175-1.614 0-4.045-1.565-5.181-3.336-0.7047-1.098-0.8245-1.533-0.919-3.332-0.088-1.677-0.0144-2.282 0.3884-3.193 0.6499-1.469 1.92-2.895 3.128-3.511 0.5328-0.2718 0.9686-0.6052 0.9686-0.741s-0.6702-0.2468-1.489-0.2468c-2.236 0-4.063-0.798-5.548-2.423-1.436-1.572-1.913-3.091-1.72-5.487 0.1628-2.028 0.8771-3.372 2.568-4.832l1.377-1.189-1.089-0.7216c-1.889-1.251-2.916-3.281-2.916-5.761 0-2.768 1.441-5.206 3.758-6.361l1.244-0.6201-0.9525-0.9301c-1.873-1.829-2.708-4.699-2.064-7.091 0.6732-2.5 2.926-4.603 5.53-5.162 0.7304-0.1566 1.293-0.3592 1.251-0.4501-0.0426-0.0909-0.4141-0.7888-0.8256-1.551-0.6398-1.185-0.748-1.659-0.748-3.275 0-1.557 0.1181-2.115 0.6703-3.172 1.333-2.55 3.52-3.868 6.434-3.877 1.823-0.0055 2.154-0.1762 1.458-0.7535-0.566-0.4698-1.395-2.923-1.395-4.129 0-3.969 3.159-7.217 7.018-7.217 1.444 0 3.633 0.6106 4.068 1.135 0.1721 0.2074 0.4636 0.3771 0.6477 0.3771 0.2546 0 0.2184-0.2562-0.1513-1.071-0.752-1.657-0.683-4.504 0.1497-6.175 1.748-3.508 5.994-4.942 9.523-3.215 0.7852 0.3842 1.702 1.024 2.037 1.423 0.8609 1.023 1.215 0.9425 0.9682-0.2206-1.248-5.882 3.523-10.43 9.177-8.752 1.583 0.47 3.637 2.249 4.188 3.627 0.5528 1.382 0.9182 1.52 0.9316 0.3532 0.0462-4.012 4.302-7.233 8.426-6.377 2.881 0.598 5.072 2.854 5.656 5.822l0.3142 1.597 0.6218-1.308c1.993-4.192 7.475-5.397 11.09-2.436 1.257 1.03 2.236 2.818 2.497 4.561l0.1587 1.058 1.23-0.8462c1.149-0.7907 3.032-1.393 4.352-1.393 1.111 0 3.12 0.7631 4.22 1.603 2.098 1.602 3.213 4.837 2.526 7.326-0.1509 0.5465-0.249 1.019-0.2179 1.05 0.0311 0.03107 0.6779-0.1047 1.437-0.3017 2.487-0.6451 4.764-0.0805 6.637 1.646 2.291 2.112 2.932 5.321 1.625 8.138l-0.6718 1.449h1.362c1.962 0 3.9 0.8039 5.115 2.122 1.673 1.815 1.932 2.495 1.933 5.064 0.001 2.152-0.0443 2.344-0.8472 3.595-0.4665 0.7269-1.134 1.546-1.483 1.821l-0.6345 0.4991h1.536c3.815 0 6.819 2.577 7.421 6.366 0.1916 1.207-0.4065 3.548-1.223 4.788-0.3444 0.5228-1.213 1.372-1.931 1.888l-1.305 0.9375 1.193 0.1707c3.076 0.44 5.546 3.207 5.885 6.591 0.2846 2.844-1.703 5.924-4.58 7.099-0.8314 0.3395-1.285 0.62-1.008 0.6234 0.8926 0.011 3.528 1.422 4.243 2.272 1.378 1.638 1.78 2.74 1.791 4.915 0.009 1.768-0.0781 2.17-0.7117 3.275-1.511 2.635-3.991 4.045-6.771 3.849-0.7968-0.0562-1.449-0.0365-1.449 0.0438 0 0.0802 0.5825 0.3528 1.294 0.6056 0.8205 0.2914 1.73 0.8949 2.483 1.648 4.425 4.425 1.275 12.11-4.969 12.12-0.8632 0.001-2.021-0.1783-2.574-0.3993-1.435-0.574-1.758-0.3233-0.5854 0.453 0.5496 0.3637 1.349 1.189 1.776 1.834 2.579 3.894 0.8632 9.021-3.574 10.68-1.57 0.5874-2.601 0.663-3.914 0.2867-0.4749-0.1362-0.9102-0.2008-0.9675-0.1436-0.0572 0.0572 0.2037 0.8732 0.5798 1.813 0.7836 1.959 0.7627 3.547-0.0713 5.424-1.169 2.63-3.195 4.018-6.113 4.187-2.512 0.1454-4.069-0.491-5.737-2.345l-1.185-1.317-1.858 1.216c-1.022 0.6687-3.088 1.816-4.591 2.55-1.503 0.7336-2.736 1.411-2.739 1.504-10.37 6.246 2.052 4.803-7.439 9.178-1.662 0.7186-11.05 4.381-11.19 4.366-0.0828-0.009-0.4906-0.1758-0.9063-0.371z" fill="#fff"/>
  <g transform="translate(1.421 58.02)">
   <path d="m159.5 148.9c-25.77-10.9-10.47-26.25-9.544-32.99l0.1687-1.646-1.359-1.38c-0.7474-0.7589-2.096-1.877-2.997-2.486-2.488-1.68-5.863-5.243-8.603-9.08-2.911-4.077-4.352-6.432-4.075-6.66 0.1137-0.0936 0.6284-0.4789 1.144-0.8561 1.083-0.7928 1.708-2.463 1.708-4.563v-1.28l1.275-0.6055c4.467-2.121 5.385-8.249 1.74-11.61l-0.9938-0.9175 0.4763-0.9861c1.468-3.04 0.5326-6.753-2.218-8.799-1.308-0.9726-2.295-3.075-2.295-4.887 0-2.354 1.156-4.262 3.284-5.421 1.082-0.5892 1.638-0.7234 2.991-0.7234 2.156 0 3.288 0.5771 5.004 2.551 1.743 2.004 3.419 2.846 5.669 2.846 0.9136 0 2.052-0.1739 2.578-0.3936 0.5182-0.2165 1.013-0.3934 1.1-0.393 0.087 0.00025 0.1656 0.879 0.1748 1.953 0.0181 2.131 0.3237 2.955 1.66 4.477 1.715 1.953 4.514 2.871 6.873 2.253 0.7018-0.1837 1.474-0.4109 1.717-0.5049 0.3934-0.1525 0.4415 0.0153 0.4464 1.557 0.0129 4.032 3.119 7.148 7.119 7.142 2.093-0.003 3.741-0.7841 5.289-2.506l1.192-1.325 0.9447 0.376c0.5196 0.2068 1.609 0.5132 2.421 0.6808 1.293 0.2668 1.622 0.2484 2.645-0.148 1.679-0.6503 4.41-0.595 5.885 0.1192 2.497 1.209 4.228 3.904 4.228 6.585 0 2.694-1.812 5.529-4.22 6.601-0.7847 0.3495-1.073 0.6252-1.079 1.032-0.005 0.3053-0.2183 1.122-0.475 1.815-0.2567 0.6928-0.8194 2.207-1.25 3.364-0.431 1.157-1.137 2.767-1.569 3.577-0.8891 1.668-2.768 3.699-3.619 3.913-0.4306 0.1081-0.7411 0.5946-1.279 2.004-0.8968 2.35-2.621 4.66-5.216 6.988-4.022 3.607-5.609 5.082-5.797 5.382 4.889 16.58 15.8 26.19-10.24 35.33-0.0828-0.009-0.4906-0.1758-0.9063-0.371z" fill="#fff"/>
   <path d="m159.5 148.9c-25.77-10.9-10.47-26.25-9.544-32.99l0.1687-1.646-1.359-1.38c-0.7474-0.7589-2.096-1.877-2.997-2.486-2.488-1.68-5.863-5.243-8.603-9.08-2.911-4.077-4.352-6.432-4.075-6.66 0.1137-0.09362 0.6284-0.4789 1.144-0.8561 1.083-0.7928 1.708-2.463 1.708-4.563v-1.26l1.275-0.6055c4.467-2.121 5.385-8.249 1.74-11.61l-0.9938-0.9175 0.4763-0.9861c1.468-3.04 0.5326-6.753-2.218-8.799-1.308-0.9726-2.295-3.075-2.295-4.887 0-2.354 1.156-4.262 3.284-5.421 1.082-0.5892 1.638-0.7234 2.991-0.7234 2.156 0 3.288 0.5771 5.004 2.551 1.743 2.004 3.419 2.846 5.669 2.846 0.9136 0 2.052-0.1739 2.578-0.3937 0.5182-0.2165 1.013-0.3934 1.1-0.393 0.087 0.000252 0.1656 0.879 0.1748 1.953 0.0181 2.131 0.3237 2.955 1.66 4.477 1.715 1.953 4.514 2.871 6.873 2.253 0.7018-0.1837 1.474-0.4109 1.717-0.5049 0.3934-0.1525 0.4415 0.01534 0.4464 1.557 0.0129 4.032 3.119 7.148 7.119 7.142 2.093-0.0033 3.741-0.7841 5.289-2.506l1.192-1.325 0.9447 0.376c0.5196 0.2068 1.609 0.5132 2.421 0.6808 1.293 0.2668 1.622 0.2484 2.645-0.148 1.679-0.6503 4.41-0.595 5.885 0.1192 2.497 1.209 4.228 3.904 4.228 6.585 0 2.694-1.812 5.529-4.22 6.601-0.7847 0.3495-1.073 0.6252-1.079 1.032-0.005 0.3053-0.2183 1.122-0.475 1.815-0.2567 0.6928-0.8194 2.207-1.25 3.364-0.431 1.157-1.137 2.767-1.569 3.577-0.8891 1.668-2.768 3.699-3.619 3.913-0.4306 0.1081-0.7411 0.5946-1.279 2.004-0.8968 2.35-2.621 4.66-5.216 6.988-4.022 3.607-5.609 5.082-5.797 5.382 4.889 16.58 15.8 26.19-10.24 35.33-0.0828-0.009-0.4906-0.1758-0.9063-0.371zm5.809-43.55c2.893-1.089 4.898-3.201 4.898-5.158 0-0.9721-0.2596-0.968-0.9869 0.0156-0.737 0.9969-3.19 2.142-5.312 2.481-4.961 0.7911-9.96-0.246-12.03-2.495l-0.8205-0.8932-0.001 1.104c-0.002 1.925 1.356 3.463 4.149 4.698 1.973 0.8724 3.472 1.118 6.087 0.9974 1.653-0.0763 2.784-0.2877 4.011-0.7496z" stroke="#060900" stroke-width="1.088" fill="none"/>
   <path d="m145.4 130.4-3.611-1.267-2.944-1.496c-1.619-0.8226-3.786-2.061-4.815-2.753-1.029-0.6915-1.939-1.257-2.022-1.257-0.0828 0-0.5861 0.4488-1.118 0.9973-1.282 1.321-2.778 2.053-4.516 2.211-5.222 0.4735-9.097-4.438-7.414-9.396 0.2178-0.6415 0.3418-1.221 0.2756-1.287-0.0662-0.0662-0.5562 0.0005-1.089 0.1484-1.433 0.3979-2.423 0.3332-4.015-0.2626-4.716-1.764-6.205-7.492-2.961-11.39 0.6786-0.8158 0.5826-1.175-0.314-1.175-1.614 0-4.045-1.565-5.181-3.336-0.7047-1.098-0.8245-1.533-0.919-3.332-0.088-1.677-0.0144-2.282 0.3884-3.193 0.6499-1.469 1.92-2.895 3.128-3.511 0.5328-0.2718 0.9686-0.6052 0.9686-0.741s-0.6702-0.2468-1.489-0.2468c-2.236 0-4.063-0.798-5.548-2.423-1.436-1.572-1.913-3.091-1.72-5.487 0.1628-2.028 0.8771-3.372 2.568-4.832l1.377-1.189-1.089-0.7216c-1.889-1.251-2.916-3.281-2.916-5.761 0-2.768 1.441-5.206 3.758-6.361l1.244-0.6201-0.9525-0.9301c-1.873-1.829-2.708-4.699-2.064-7.091 0.6732-2.5 2.926-4.603 5.53-5.162 0.7304-0.1566 1.293-0.3592 1.251-0.4501-0.0426-0.0909-0.4141-0.7888-0.8256-1.551-0.6398-1.185-0.748-1.659-0.748-3.275 0-1.557 0.1181-2.115 0.6703-3.172 1.333-2.55 3.52-3.868 6.434-3.877 1.823-0.0055 2.154-0.1762 1.458-0.7535-0.566-0.4698-1.395-2.923-1.395-4.129 0-3.969 3.159-7.217 7.018-7.217 1.444 0 3.633 0.6106 4.068 1.135 0.1721 0.2074 0.4636 0.3771 0.6477 0.3771 0.2546 0 0.2184-0.2562-0.1513-1.071-0.752-1.657-0.683-4.504 0.1497-6.175 1.748-3.508 5.994-4.942 9.523-3.215 0.7852 0.3842 1.702 1.024 2.037 1.423 0.8609 1.023 1.215 0.9425 0.9682-0.2206-1.248-5.882 3.523-10.43 9.177-8.752 1.583 0.47 3.637 2.249 4.188 3.627 0.5528 1.382 0.9182 1.52 0.9316 0.3532 0.0462-4.012 4.302-7.233 8.426-6.377 2.881 0.598 5.072 2.854 5.656 5.822l0.3142 1.597 0.6218-1.308c1.993-4.192 7.475-5.397 11.09-2.436 1.257 1.03 2.236 2.818 2.497 4.561l0.1587 1.058 1.23-0.8462c1.149-0.7907 3.032-1.393 4.352-1.393 1.111 0 3.12 0.7631 4.22 1.603 2.098 1.602 3.213 4.837 2.526 7.326-0.1509 0.5465-0.249 1.019-0.2179 1.05 0.0311 0.03107 0.6779-0.1047 1.437-0.3017 2.487-0.6451 4.764-0.0805 6.637 1.646 2.291 2.112 2.932 5.321 1.625 8.138l-0.6718 1.449h1.362c1.962 0 3.9 0.8039 5.115 2.122 1.673 1.815 1.932 2.495 1.933 5.064 0.001 2.152-0.0443 2.344-0.8472 3.595-0.4665 0.7269-1.134 1.546-1.483 1.821l-0.6345 0.4991h1.536c3.815 0 6.819 2.577 7.421 6.366 0.1916 1.207-0.4065 3.548-1.223 4.788-0.3444 0.5228-1.213 1.372-1.931 1.888l-1.305 0.9375 1.193 0.1707c3.076 0.44 5.546 3.207 5.885 6.591 0.2846 2.844-1.703 5.924-4.58 7.099-0.8314 0.3395-1.285 0.62-1.008 0.6234 0.8926 0.01096 3.528 1.422 4.243 2.272 1.378 1.638 1.78 2.74 1.791 4.915 0.009 1.768-0.0781 2.17-0.7117 3.275-1.511 2.635-3.991 4.045-6.771 3.849-0.7968-0.05616-1.449-0.03646-1.449 0.04378s0.5825 0.3528 1.294 0.6056c0.8205 0.2914 1.73 0.8949 2.483 1.648 4.425 4.425 1.275 12.11-4.969 12.12-0.8632 0.001-2.021-0.1783-2.574-0.3993-1.435-0.574-1.758-0.3233-0.5854 0.453 0.5496 0.3637 1.349 1.189 1.776 1.834 2.579 3.894 0.8632 9.021-3.574 10.68-1.57 0.5874-2.601 0.663-3.914 0.2867-0.4749-0.1362-0.9102-0.2008-0.9675-0.1436-0.0572 0.0572 0.2037 0.8732 0.5798 1.813 0.7836 1.959 0.7627 3.547-0.0713 5.424-1.169 2.63-3.195 4.018-6.113 4.187-2.512 0.1454-4.069-0.491-5.737-2.345l-1.185-1.317-1.858 1.216c-1.022 0.6687-3.088 1.816-4.591 2.55-1.503 0.7336-5.468 2.635-5.472 2.729" stroke="#060900" stroke-width="2.176" fill="none"/>
   <path d="m165.3 105.4c2.893-1.089 4.898-3.201 4.898-5.158 0-0.9721-0.2596-0.968-0.9869 0.0156-0.737 0.9969-3.19 2.142-5.312 2.481-4.961 0.7911-9.96-0.246-12.03-2.495l-0.8205-0.8932-0.001 1.104c-0.002 1.925 1.356 3.463 4.149 4.698 1.973 0.8724 3.472 1.118 6.087 0.9974 1.653-0.0763 2.784-0.2877 4.011-0.7496z" stroke="#060900" stroke-width="1.088" fill="none"/>
   <path d="m150.8 114.7c2.028 1.554 6.316 2.888 9.285 2.888 3.004 0 6.43-1.115 9.337-3.038 0.4481-0.2964 0.8169-0.4427 0.8196-0.3252" stroke="#070a00" stroke-linecap="round" stroke-width="1.088" fill="none"/>
  </g>
 </g>
</svg>
