<?xml version="1.0" encoding="UTF-8" standalone="no"?>
<svg xmlns="http://www.w3.org/2000/svg" viewBox="0 0 322.75553 571.18853" height="525" width="322.8" version="1.0">
 <g>
  <path d="m142.8 177.5c-12.46 4.809-26.94 11.65-26.94 11.65v0.002c-9.128 5.623-47.81 48.92-49.56 54.17-1.75 5.253 45.45 63.61 45.45 63.61l3.64 3.974c-6.98 17.06-12.52 39.24-8.657 62.27l-0.2316 47.67h87.33l11.35-50.48c3.425-23.69 0.7061-43.46-3.642-58.51l4.509-4.919s47.2-58.36 45.45-63.61c-1.75-5.253-38.23-46.69-47.36-52.32 0 0-13.46-6.549-26.01-11.78-0.937 0.0507-1.888 0.0938-2.873 0.1211-13.55 23.95-28.23-0.85-28.23-0.85v-0.5546c-1.373-0.1382-2.799-0.2948-4.222-0.4505zm-26.57 45.09c2.367 9.828 9.392 15.81 9.392 15.81l7.433 40.42s-3.518 4.627-8.034 12.48c-1.354-1.426-2.515-2.538-2.839-2.592-0.875-0.1444-3.646 6.453-3.646 6.453l-26.07-45.1zm86.63 1.485 22.55 25.97-26.15 45.12s-2.771-6.598-3.646-6.453c-0.2811 0.0473-1.219 0.9275-2.344 2.087-3.95-7.758-7.246-11.97-7.246-11.97l9.29-40.89c4.177-3.945 6.383-9.048 7.546-13.86z" fill="#fff"/>
  <path d="m119.6 173.9c-8.4 5.1-43.97 44.9-45.58 49.7-1.61 4.9 41.78 58.5 41.78 58.5l6.2-10.8-23.99-41.5 21.89-25.2c-0.7-3.1-1-6.5-0.3-10.2v-20.5z" transform="matrix(1.088 0 0 1.088 -14.2 0)" stroke="#000" stroke-width="1.465" fill="none"/>
  <path d="m200.7 175.6v19.2c0 2.5-0.1 6.7-1.2 11.1l20.8 23.9-24.1 41.5 6.3 10.8s43.4-53.6 41.7-58.5c-1.6-4.8-35.1-42.9-43.5-48z" transform="matrix(1.088 0 0 1.088 -14.2 0)" stroke="#000" stroke-width="1.465" fill="none"/>
  <path d="m144.3 163.1c-11.4 4.5-24.7 10.8-24.7 10.8v20.5c-2.6 14.9 8.9 24.7 8.9 24.7l6.9 37.2s-3.3 4.2-7.4 11.4c2.1 2.3 4.8 5.4 5 6 0.4 0.9-0.9 2.8-0.9 2.8l-2.6-1.4-1 3.8h-2.5s2.6 1.9 2.5 3.2c-0.2 1.4-1.5 1.8-1.5 1.8l-4-2.5-2.9 5.4-1-1c-6.4 15.7-11.5 36-7.9 57.2l-0.2 43.8h80.2l10.5-46.4c3.1-21.8 0.6-39.9-3.4-53.8l-0.1 0.2-3-5.4-3.9 2.5s-1.4-0.4-1.5-1.8c-0.1-1.3 2.5-3.2 2.5-3.2h-2.5l-1.1-3.8-2.5 1.4s-1.4-1.9-1-2.8c0.3-0.7 3.3-4.2 5.5-6.4-3.6-7.2-6.6-11-6.6-11l8.5-37.6c7.7-7.3 8.1-18.8 8.1-23.9v-19.2s-12.4-6.1-23.9-10.9c-0.9 0.1-1.7 0.1-2.6 0.1-12.5 22.1-26-0.7-26-0.7v-0.5c-1.2-0.2-2.6-0.3-3.9-0.5z" transform="matrix(1.088 0 0 1.088 -14.2 0)" stroke="#000" stroke-width="1.465" fill="none"/>
  <path d="m199.3 295.2s-2.772-6.599-3.647-6.454c-0.875 0.1473-7.878 8.025-8.317 9.048-0.4361 1.022 1.022 3.064 1.022 3.064l2.772-1.458 1.167 4.083h2.743s-2.888 2.045-2.743 3.503c0.1473 1.458 1.606 1.897 1.606 1.897l4.32-2.628 3.182 5.839 4.681-5.109-6.786-11.79" stroke="#000" stroke-width="1.594" fill="none"/>
  <path d="m118.6 295.2s2.772-6.599 3.647-6.454c0.8779 0.1473 7.881 8.025 8.317 9.048 0.439 1.022-1.019 3.064-1.019 3.064l-2.772-1.458-1.167 4.083h-2.743s2.888 2.045 2.743 3.503c-0.1473 1.458-1.606 1.897-1.606 1.897l-4.32-2.628-3.182 5.839-4.681-5.109 6.784-11.79" stroke="#000" stroke-width="1.594" fill="none"/>
 </g>
</svg>
