<?xml version="1.0" encoding="UTF-8" standalone="no"?>
<svg xmlns="http://www.w3.org/2000/svg" viewBox="0 0 322.75553 571.18853" height="525" width="322.8" version="1.0">
 <path d="m132.7 313.3c25.22 6.07 23.2 5.747 46.01 2.387 1.605-0.1775 2.989-0.9948 4.434-1.595 14.68 7.455 31.44 35.67 31.69 64.48 4.282 45.16 10.5 87.79 12.92 131.7 0.0869 9.341-0.0678 18.69 0.076 28.03-1.667 0.9498-3.489 1.662-5.055 2.765-0.9937 0.7174-2.158 1.18-3.331 1.592-0.9692 0.3175-1.89 0.8848-2.957 0.8298-2.967-0.0397-5.94 0.0397-8.905-0.0374-1.667-1.19-3.269-2.477-4.849-3.764-0.5186-1.84-0.6489-3.777-1.037-5.652-0.3502-2-0.714-4.002-0.9828-6.012-0.0977-3.399 0.0516-6.801-0.0678-10.2-9.908-59.04-15.15-94.52-34.83-141.2-0.714-0.9824-1.295-2.112-2.229-2.92-1.262 0.0225-2.56-0.1125-3.801 0.085-1.007 0.7174-2.27 1.342-2.718 2.512-1.186 2.667-2.571 5.264-3.519 8.019-15.4 61.55-16.56 87.89-16.71 147.9-0.0652 0.8523 0.2308 1.835-0.3828 2.575-1.178 1.59-2.164 3.307-3.494 4.802-0.8416 0.9649-1.672 1.942-2.506 2.917-0.5946 0.7249-1.539 1.077-2.343 1.565-0.6516 0.34-1.26 0.8248-2.028 0.9099-3.079 0.3074-6.185 0.4624-9.223 1.042-1.545 0.2525-3.084 0.6149-4.664 0.5474-2.082-2.852-4.162-5.719-6.117-8.641-0.1412-5.642-0.019-11.3-0.0597-16.95-1.104-41.65 5.974-82.43 6.507-123.2-0.0869-6.164 0.5349-12.32 0.2986-18.48-1.461-20.79-1.529-56.31 19.87-66.05z" stroke="#000" stroke-width="2.091" fill="#fff"/>
 <path d="m157.1 374.2c0.448-1.17 1.71-1.795 2.718-2.512 1.241-0.1975 2.538-0.0625 3.801-0.085 0.9339 0.8074 1.515 1.937 2.229 2.92 2.536 5.792 4.849 11.67 7.124 17.55 0.657 1.53 1.167 3.107 1.615 4.699 14.96 56.15 17.44 81.97 27.14 137.3 0.3882 1.875 0.5186 3.812 1.037 5.652 1.58 1.287 3.182 2.575 4.849 3.764 2.965 0.0775 5.938-0.002 8.905 0.0375 1.067 0.055 1.987-0.5124 2.957-0.8299 1.173-0.4124 2.338-0.8749 3.331-1.592 1.567-1.102 3.388-1.815 5.055-2.765-0.1439-9.339 0.7602-7.251 0.7357 0.5149-1.852 0.9548-3.782 1.792-5.501 2.952 1.64 3.11 2.576 6.469 3.638 9.771 1.032 3.332 1.968 6.746 1.941 10.24-0.0218 2.3-0.5647 4.677-2.023 6.586-0.6299 0.8674-1.74 1.315-2.843 1.405h-0.7222c-2.777-0.2775-5.21-1.642-7.691-2.717-1.759-0.7674-3.274-2.182-3.641-3.994-0.5376-2.637-0.4778-5.342-0.6842-8.011-0.1738-3.609-0.2851-7.219-0.4371-10.83-1.119 0.005-2.237 0.005-3.356 0.005-1.702-1.335-3.415-2.655-5.115-3.992-0.2824-0.2025-0.2769-0.5574-0.3502-0.8399-12.71-59.22-6.749-91.38-29.63-147.2-2.099-5.437-4.254-10.85-6.532-16.23-0.4507-1.382-1.504-2.477-2.324-3.679-1.015 0.0225-2.034-0.0375-3.049 0.0175-0.7982 0.3949-1.491 0.9748-2.129 1.562-0.9964 1.97-1.873 3.994-2.815 5.989-2.305 5.787-4.491 11.62-6.407 17.52-7.735 56.92-11 80.38-11.29 137.1-0.6136 1.115-1.463 2.11-2.153 3.187-1.224 1.91-2.864 3.542-4.303 5.309-0.7901 1.032-2.145 1.46-3.247 2.142-0.0571 2.582-0.209 5.179-0.8091 7.709-0.7982 3.564-2.639 7.051-5.775 9.356-4.083 3.014-9.44 4.022-14.55 4.292-0.1575-2.017-0.0624-4.044 0.2471-6.044 0.7656-4.699 2.164-9.321 4.224-13.68-1.949-2.86-1.126-2.95 0.956-0.0975 1.58 0.0675 3.12-0.295 4.664-0.5474 3.038-0.5799 6.144-0.7349 9.223-1.042 0.7683-0.085 1.376-0.5699 2.028-0.9099 0.8036-0.4874 1.748-0.8398 2.343-1.565 0.8335-0.9748 1.664-1.952 2.506-2.917 1.33-1.495 2.316-3.212 3.494-4.802 0.6136-0.7399 0.3176-1.722 0.3828-2.575 2.601-55.47 0.6554-81.69 11.36-135.4 1.662-4.947 3.388-9.873 5.343-14.73 0.9475-2.755 2.332-5.352 3.519-8.019m60.26 170.1c-1.743 0.035-3.489 0.005-5.234 0.007 0.3014 2.69 0.9041 5.344 1.097 8.046 0.1602 1.255 0.1194 2.557 0.5728 3.769 0.2878 0.7574 1.108 1.225 1.938 1.36 1.689 0.2875 3.424 0.255 5.131 0.175 1.219-0.12 2.677-0.3324 3.345-1.407 0.6597-1.257 0.2063-2.695-0.038-3.992-0.8471-3.232-1.553-6.506-1.871-9.821-1.621 0.6749-3.266 1.322-4.941 1.862m-97.77 2.182c-2.495 0.28-4.93 1.065-7.469 0.9499-0.0434 2.64-0.1358 5.292 0.0896 7.929 0.0516 1.067 1.094 1.915 2.232 1.935 2.09 0.1225 4.081-0.6849 5.883-1.572 1.466-0.8124 3.024-1.705 3.869-3.122 1.167-2.165 1.952-4.487 2.593-6.821-2.397 0.235-4.797 0.4574-7.197 0.7024z" stroke="#000" stroke-width="2.091" fill="#fff"/>
 <path d="m217.4 544.3c1.675-0.5399 3.32-1.187 4.941-1.862 0.3176 3.314 1.024 6.589 1.871 9.821 0.2443 1.297 0.6977 2.735 0.038 3.992-0.6679 1.075-2.126 1.287-3.345 1.407-1.708 0.0799-3.443 0.1125-5.131-0.175-0.8308-0.135-1.651-0.6024-1.938-1.36-0.4534-1.212-0.4127-2.515-0.5728-3.769-0.1928-2.702-0.7955-5.357-1.097-8.046 1.746-0.002 3.491 0.0275 5.234-0.007z" stroke="#000" stroke-width="2.091" fill="#fff"/>
 <path d="m119.6 546.5c2.4-0.245 4.8-0.4674 7.197-0.7024-0.6407 2.335-1.425 4.657-2.593 6.821-0.8444 1.417-2.403 2.31-3.869 3.122-1.803 0.8874-3.793 1.695-5.883 1.572-1.138-0.0199-2.18-0.8674-2.232-1.935-0.2253-2.637-0.133-5.289-0.0896-7.929 2.538 0.115 4.974-0.6699 7.469-0.9499z" stroke="#000" stroke-width="2.091" fill="#fff"/>
</svg>
