<?xml version="1.0" encoding="UTF-8" standalone="no"?>
<svg xmlns="http://www.w3.org/2000/svg" height="525" width="322.8" version="1.0" viewBox="0 0 322.75553 571.18853">
 <path stroke-width=".2910" fill="#fff" d="m108.2 293.6c-1.629 0.8259-2.381 1.736-2.008 2.731 0.1944 0.4834 0.2366 1.011 0.1126 1.521-2.696 12.68-2.386 25.66-0.1849 35.24 0.2674 0.8602-0.2389 1.652-0.5695 2.41-2.102 4.527-1.322 3.75-8.102 57.87-0.491 0.3402-1.121 0.62-1.298 1.249-11.91 33.1-5.257 61.16-4.503 61.55 4.276 2.805 5.093 2.155 5.323 3.661 3.332 45.53 3.248 42.86 3.122 43.68-0.9478 1.006-2.109 1.801-2.981 2.89-7.88 8.808-3.809 16.65-4.21 21.25h50.14c0.0626-8.253 1.532-13.68-3.887-20.31-1.293-1.695-1.248 4.11 2.624-48.88 2.25-1.266 4.47-2.592 6.645-3.982 2.014-77.57-4.028-18.69 3.78-84.82 1.551 0.1149 15.14 0.618 20.12-0.5227 7.186 57.19 1.934 15.99 3.655 83.62 6.513 3.967 6.719 3.774 6.679 4.452 3.888 51.82 3.819 46.8 2.703 48.27-3.191 3.827-4.824 8.988-4.146 13.95 0.3594 2.367 0.1481 4.762 0.204 7.146 16.69 0.003 33.38 0.003 50.07 0 0.0917-6.8 3.368-15.93-6.364-24.01-1.289-1.273-1.235 3.733 2.138-41.97 0.0949-1.033 0.0851-2.078 0.2699-3.096 1.691-1.358 3.926-1.963 5.576-3.387 6.607-31.35-3.66-60.68-6.169-62.51-0.1531-1.137-0.2815-2.275-0.425-3.413 2.425 1.806 1.448 1.358 14.68-0.5907 1.373-0.1336 2.494-1.153 3.009-2.395 2.316-5.172-5.016-48.39-7.376-52.82-2.95-5.679-2.62-21.63-5.268-24.35-1.157-1.322-3.038-1.748-4.717-1.383-2.846 0.5442-5.783 0.6536-8.564 1.507-0.5564-4.547-1.681-9.127-4.008-13.11h-1.041c-1.584 2.776-4.862 8.165-11.25 13.72-14.57 16.42-28.6 13.97-48.87 14.04-5.264-0.1248-14.51 1.158-25.62-5.478-0.5663-0.328-1.118-0.6832-1.606-1.116-1.35-0.4109-11.99-7.946-17.07-22.49-0.01-0.0327-0.0215-0.0651-0.0319-0.0977z"/>
 <path d="m222.7 281.7c-0.4016-0.002-0.809 0.0484-1.209 0.1484-2.6 0.5-5.298 0.6004-7.898 1.4l-0.918 1.908-0.1562 1.697 0.3867 4.633 0.2871 7.689c0.2501 1.305 0.9752 5.804 0.7988 6.773-0.8-0.8-1.198-1.901-1.898-2.801 0 0-0.106-8.286-2.731-11.84-2.414-4.587-9.787-6.921-13.63-4.325-12.58 12.38-24.43 9.663-41.94 9.663-4.9-0.1-13.4 1.1-23.6-5-0.5-0.3-1-0.6-1.5-1-1.2-0.4-20.2 6.7-18.1 15.5 0.2 0.8-0.3016 1.501-0.6016 2.201-1.9 4.2-1.2 3.5-7.4 53.2-0.5 0.3-0.9992 0.5992-1.199 1.199-10.95 30.4-4.831 56.2-4.141 56.5 3.94 2.6 4.641 2 4.941 3.4 3 41.8 2.899 39.4 2.799 40.1-0.8 1-1.899 1.701-2.699 2.701-7.26 8.1-3.521 15.3-3.891 19.5h46.09c0.1-7.6 1.399-12.6-3.602-18.6-1.2-1.6-1.1 3.701 2.4-45 2.1-1.1 4.102-2.4 6.102-3.6 1.9-71.3-3.7-17.2 3.5-78 1.4 0.1 13.9 0.6 18.5-0.5 6.6 52.6 1.8 14.7 3.4 76.9 6 3.6 6.1 3.402 6.1 4.102 3.6 47.6 3.5 43 2.5 44.3-2.9 3.5-4.401 8.3-3.801 12.9 0.3 2.1 0.1012 4.3 0.2012 6.5h46c0.1-6.2 3.1-14.6-5.9-22-1.1-1.2-1.1 3.399 2-38.6 0.1-1 0.1008-1.9 0.3008-2.9 1.5-1.2 3.6-1.8 5.1-3.1 6-28.8-3.399-55.7-5.699-57.4-0.1-1.1-0.3004-2.101-0.4004-3.201 2.2 1.7 1.3 1.3 13.5-0.5 1.3-0.1 2.301-1.099 2.801-2.199 2.1-4.8-4.601-44.5-6.801-48.6-2.7-5.2-2.401-19.8-4.801-22.3-0.825-0.975-1.987-1.445-3.191-1.449zm-0.498 3.041c0.1781-0.0156 0.3402-0.0172 0.4902 0.008 1.8 0.1 1.601 2.901 3.801 18.1-0.6 0.1-1.302 0.1988-2.002 0.2988-0.6-3.9-1.099-7.899-1.799-11.8 0-0.7-0.4-1.3-0.5-2-0.3-0.4-0.8004-0.8012-1.4-0.7012-1.6 0.3-2.5 0.2996-3 0.5996-1 1.3-0.4992 2.801 1.301 14.8-0.6 0-1.102 0.1008-2.102 0.3008-2.7-18.2-3-17.8-1.6-18.5 1.4-0.2 4.501-0.7008 4.701-0.8008 0.9-0.075 1.575-0.2617 2.109-0.3086zm-21.82 4.686c5.716-0.0558 10.53 6.394 8.811 12.72-0.8 0.2-1.6 0.2008-2.5 0.3008-23.9 3-24.5 16.7-27.1 22.7-0.2 1.3-2 6.799-5.1 9.199-3.9 3.1-9 2.4-14.9 2.5-7.8-0.2-12.8 0.1998-15.6-7.9-3.5-10.7-3.401-19.7-30.2-22.3-2.3-8.9 13.1-13.4 14.1-12.8v0.0996c11.4 6.5 17.4 5.799 28.3 5.799 8.3 0 15.3 0.1004 17.7-0.0996 6.7-0.4 10.6-2.4 11.8-2.6v-0.1992c0.9-0.3 1.801-0.8016 2.701-1.102v-0.0996c2.6-1.1 6-3.7 7.1-4.4v-0.0996c1.619-1.181 3.29-1.707 4.891-1.723zm8.645 15.9c0.2594-0.006 0.5156 0.00039 0.7656 0.0254 1 1 2.4 4 2.9 7.4 0.2 0.9 5.3 43.4 5.5 45.4-0.3-0.1-5.301-2.4-7.701-3h0.1016c-0.9-0.2-4.302-1.201-6.602-1.301l0.0996-0.0996c-14.7-0.5-20.6 6.1-26.5 10.5-0.6-4.5-3.099-25.1-3.199-25.8 0-0.5 0.4988-0.6004 0.7988-0.9004 7.5-4.3 8.401-19.2 11.8-22 3.9-6.5 12.2-9 19.7-10 0.75-0.075 1.556-0.2059 2.334-0.2246zm17.77 0.5254c0.3 0 0.5012-0.00078 0.7012 0.1992 2 2.4 6.698 31.9 6.398 33.6 0.3 1.7 1.501 11.7 0.7012 13.5-0.4 0.1-3.3 0.5996-4.1 0.5996v0.0996c-1.3 0.1-5.901 0.9-6.801 1-1-1.1-7.801-46.3-7.301-47.3 0.9-0.3 2.001-0.4004 2.801-0.4004v-0.1992c2-0.1 4.701-0.6992 5.801-0.6992v-0.2012c0.4 0 0.7996 0.00039 1.1-0.0996 0.3 0 0.4992-0.0996 0.6992-0.0996zm-114.1 3.799c37.7 1.9 19.7 23.5 37.2 29.5-1.7 13.5-2.101 17.6-3.301 26.7-15-12.5-23.1-12.2-37.1-7.699v0.0996c-1.2 0.5-2.4 1.1-3.6 1.6 5.9-49.4 5.601-47.3 6.801-50.2zm88.9 47.1c3.7 0 6.602 0.9004 8.602 1.4v0.1992c1.4 0.2 9.9 3.6 10.1 4.9 0.9 2.5 1.801 4.9 2.301 7.5-2.2-1-4.401-2.2-6.701-2.9v-0.0996c-9.4-2.6-4.799-1.199-9.799-2.199l-0.1016 0.0996c-6.1-0.9-16.3 1-28.1 9.9 0.1-2.5 0.0992-5.1 0.1992-7.6 2.5-2.5 9.2-8.102 15.9-10.1 2.8-0.9 5.3-1.2 7.6-1.1zm-78.5 1.6c11.7 0 19.9 8.8 22.7 10.9v0.0996c0.1 0.1 0.3008 0.3004 0.3008 0.4004 0.2 3 0.0992 2.4 0.1992 7.4-1.1-0.8-2.099-1.601-3.199-2.301l-0.0996-0.1992c-8.6-4.4-19.6-13.2-41.2-2.301v0.1016c-0.7 0.3-1.401 0.6996-2.131 1.1 0.2-0.9 2.531-10.2 3.631-10.7 2.9-1.5 5.8-2.9 8.9-4-0.2 0.6-0.5 1.201-0.5 1.801 2.5-1 5.8-1.901 9-2.201 0.8-0.1 1.6-0.0996 2.4-0.0996zm78 10.2c8.9 0.2 5.601 0.2992 9.301 0.6992l0.0996 0.2012c0.8 0 1.6 0.3 2.4 0.5v0.0996c1.4 0.2 7.301 2.5 10.8 5 0.7 2.2 0.9008 4.499 1.301 6.699-5.8-2.1-10-2.8-11.6-2.9v-0.0996c-3.6 0.1-12.9-2.999-35.7 6.801 0.1-2 0.001-4 0.2012-6 0.5-0.6 4.999-4.2 8.699-6.1 0.4-0.4 4.501-2.501 5.701-2.701v-0.0996c0.9-0.3 5.299-1.9 8.799-2zm-79.7 1.6c3.1 0.1 6 0.6004 8.4 1.4l0.0996 0.1992v-0.1992c1.4 0.5 2.801 1.1 4.201 1.6v0.0996c2.2 0.8 5.6 2.901 7.6 4.301 5.1 3.7 5.001 2.6 4.801 9.5-1.7-0.6-3.601-1.6-5.201-2.1v-0.2012c-1-0.2-10.7-4.2-19.1-4.5v-0.1992c-0.7 0.1-1.501 0-2.201 0-3.6-0.2-7.999 0.2008-8.799 0.3008v0.0996c-4.4 0.2-9.6 2.1-13.67 3.6 0.35-2.5 0.8294-5 1.359-7.4 0.22 0.2 0.4304 0.3 0.6504 0.5 0.28-0.1 0.5594-0.2008 0.8594-0.3008v-0.1992c2.2-1.2 4.299-2.6 6.699-3.4v-0.1992c1.6-0.5 3.1-1.2 4.4-1.4v-0.0996c0.9-0.2 1.7-0.4996 2.5-0.5996v-0.1016c0.7-0.1 1.4-0.1992 2-0.1992v-0.1992c0.8 0 1.501-0.1012 2.301-0.2012 1-0.1 2.1-0.0996 3.1-0.0996zm85.8 11.3c7.6 0.1 13.9 1.7 18.3 3.9 0.4 2.2 0.4996 4.399 0.5996 6.699-10.5-2.1-19.1-1.601-20.7-1.801v0.1016c-5.6-0.3-20.2 2-20.4 2v0.0996c-1.4 0.2-6.001 1.1-7.301 1.4 0-1.6-0.1-3.3 0-4.9 1.9-0.9 7.9-3.8 9.9-4.1v-0.2012c1.5-0.3 6.3-2.2 14-3 2-0.2 3.802-0.1992 5.602-0.1992zm-89.7 1.6c10.5-0.1 19.5 3 29 7.5 0 1.7 0.0996 3.3 0.0996 4.9-3.5-0.7-4.701-1.001-6.201-1.201v-0.0996c-0.2 0-15.9-2.5-21-2.1v-0.0996c-3.7 0.2-8.7-0.6-22.84 2 0.05-2.2 0.3-4.401 0.5-6.701 1.45 0 7.339-3 10.44-3.1v-0.1992c1.3-0.1 2.5-0.4012 5.4-0.7012 1.6-0.2 3.1-0.1992 4.6-0.1992zm88.7 10.3c8.6-0.1 16.3 0.7988 20.1 1.799 0 2.6 0.00079 5.201-0.1992 7.801-1.8 0-9.6 0.2996-10.4 0.0996v0.2012l-29.2 0.5v-0.2012c-1.5 0.2-6.1-0.0992-8.9-0.1992v-6.4c1.4-0.3 7.601-1.6 8.801-1.6v-0.1016c1.5-0.1 7.1-1.299 16-1.799 1.3 0 2.601-0.0996 3.801-0.0996zm-86.8 1.6v0.0996c0.8-0.2 12.4 0.2999 27.2 3.5v6.4c-12.6 0.7-37.4-0.00038-50.05-0.4004-0.1-2.5-0.2011-5-0.1211-7.5 3.67-0.7 4.971-0.9996 6.271-1.1v-0.0996c2.6-0.2 3.4-0.5008 9.1-0.8008 4.1-0.2 4.4 0.0004 7.6-0.0996zm104.4 11.1h2.1c-0.3 2.9-0.6996 5.7-1.1 8.6-0.3 1 0.3001 0.7011-3.5 2.701-15.6 9-28.7 6.7-43.5-3-0.2-1.5-0.1012-7.7-0.2012-7.9 3.9 0 6.001 0.6992 38.7-0.3008 0.2 0 4.6-0.0996 7.5-0.0996zm-127 1.6c16.31 0 32.01 1.201 49.81 0.3008-0.1 2.7 0.00039 5.3-0.0996 7.9-0.5 0.6-1.3 0.8988-1.9 1.299 0.2 0.1 0.3996 0.1012 0.5996 0.2012-0.5 0.6-1.099 1.201-1.699 1.801h-0.0996c-1.9 1.9-4.5 3-7 3.6v0.0996c-2.2 0.4-4.402 1-6.602 0.9004-1.2 0.3-5.499 0.9004-9.199 0.9004-1.1 0.3-2.1 0.4988-3.1 0.7988-1.5 0.5-7.4-1.499-8.9-2.199-0.9-0.2-3.601-1.4-4.201-1.9-2.2-0.8-4.2-2.101-6.17-3.201-0.64-3.5-1.189-7-1.439-10.5zm87.31 13.9c3.4 1.5 8.001 3.4 11.8 3.9v0.0996c11.3 1.4 15.1-0.6996 23-3.6-0.1 1.8-2.299 31.7-2.699 37.3-4.3-2.3-6.4-2.401-7.5-2.801-7.7-0.9-14.8-0.5985-21.7 4.602-0.7-10-2.1-29.2-2.9-39.5zm-44 1.602s-2.9 39.2-2.9 39.5c-4.1-3.1-9.8-4.9-13-4.9v-0.0996c-1.8 0.1-2.9-0.8004-11.4 1.1-0.5 0.3-1.201 0.4996-1.801 0.5996v0.1016c-1.2 0.4-1.898 0.7984-2.898 1.398-2.7-36.3-2.701-34.9-2.701-37.2 1.8 0.6 7.1 3 11.9 3.6v0.0996c1.5 0 3 0.3008 4.5 0.3008 1.4 0 2.7-0.2016 4-0.1016v-0.1992c3.3-0.1 7.701-1.499 10.8-2.699 1.1-0.5 2.3-1 3.5-1.5zm62.4 35.9c5-0.1 8.8 1.4 9.5 1.6v0.0996c1.3 0.4 4.802 2 8.002 5.6 3.9 4.8 3.399 8.701 3.299 10.8-1.2 0.1-39.6 0.1-40.7 0-1.2-10 8.301-16.8 16.2-17.8 1.3-0.2 2.499-0.2988 3.699-0.2988zm-80 1.6c13.4 1 20.3 10.1 19 18.1h-40.5c-0.4-2.8 0.001-5.9 1.701-8.4 0.5-2.2 7.401-10.2 19.8-9.699z" transform="matrix(1.088 0 0 1.088 -14.22 0)" stroke-width=".2675"/>
 <path stroke-width=".2910" d="m141.2 330.8c1.776-3.604 3.256-3.146 34.65-3.001 3.403 0.1051 6.648 2.159 5.975 5.458-4.603 25.99-4.318 26.13-6.185 28.11-3.901 4.902-23.05 3.316-26.03 1.905-4.736-2.136-4.157-4.912-8.544-29.13-0.2183-1.096-0.4054-2.304 0.1342-3.339m1.652 0.4618c-0.6609 0.9356-0.1967 2.095-0.0559 3.115 0.257 1.255 3.076 17.78 3.56 19.54l-0.0754 0.1336c0.3961 1.533 0.406 3.166 1.052 4.632 1.668 3.716 4.809 3.687 9.278 4.155 3.59 0.3149 7.306 0.261 10.9-0.1458 3.341-0.33 7.484-0.6868 8.357-5.502 4.842-27.09 4.917-25.14 3.502-26.55-2.319-1.956-3.752-0.9589-31.69-1.208-1.738-0.0509-3.759 0.3184-4.834 1.825z"/>
</svg>
